AE/tlb/verilog/test_ptw.vcd
$date
	Sun Sep  7 01:17:01 2025
$end
$version
	Icarus Verilog
$end
$timescale
	1ps
$end
$scope module test_ptw $end
$var wire 1 ! ptw_resp_valid_o $end
$var wire 1 " ptw_req_ready_o $end
$var wire 32 # ptw_pte_o [31:0] $end
$var wire 1 $ mem_resp_ready_o $end
$var wire 1 % mem_req_valid_o $end
$var wire 32 & mem_addr_o [31:0] $end
$var reg 1 ' clk $end
$var reg 32 ( mem_data_i [31:0] $end
$var reg 1 ) mem_req_ready_i $end
$var reg 1 * mem_resp_valid_i $end
$var reg 1 + ptw_req_valid_i $end
$var reg 1 , ptw_resp_ready_i $end
$var reg 32 - ptw_vaddr_i [31:0] $end
$var reg 32 . received_pte [31:0] $end
$var reg 1 / rst $end
$var integer 32 0 test_failed [31:0] $end
$var integer 32 1 test_passed [31:0] $end
$scope module dut $end
$var wire 1 ' clk $end
$var wire 32 2 mem_data_i [31:0] $end
$var wire 1 ) mem_req_ready_i $end
$var wire 1 * mem_resp_valid_i $end
$var wire 1 + ptw_req_valid_i $end
$var wire 1 , ptw_resp_ready_i $end
$var wire 32 3 ptw_vaddr_i [31:0] $end
$var wire 1 / rst $end
$var wire 10 4 vpn1 [9:0] $end
$var wire 10 5 vpn0 [9:0] $end
$var wire 32 6 level2_pte_addr [31:0] $end
$var wire 32 7 level1_pte_addr [31:0] $end
$var reg 32 8 level1_pte [31:0] $end
$var reg 32 9 level2_pte [31:0] $end
$var reg 32 : mem_addr_o [31:0] $end
$var reg 1 % mem_req_valid_o $end
$var reg 1 $ mem_resp_ready_o $end
$var reg 3 ; next_state [2:0] $end
$var reg 32 < ptw_pte_o [31:0] $end
$var reg 1 " ptw_req_ready_o $end
$var reg 1 ! ptw_resp_valid_o $end
$var reg 3 = state [2:0] $end
$var reg 32 > vaddr_reg [31:0] $end
$upscope $end
$scope begin $unm_blk_1 $end
$var integer 32 ? i [31:0] $end
$upscope $end
$scope begin $unm_blk_33 $end
$var integer 32 @ i [31:0] $end
$upscope $end
$scope begin $unm_blk_4 $end
$var reg 32 A word_index [31:0] $end
$upscope $end
$scope task ptw_translate $end
$var reg 32 B pte_result [31:0] $end
$var reg 32 C vaddr [31:0] $end
$upscope $end
$scope task reset_dut $end
$upscope $end
$scope task verify_translation $end
$var reg 32 D exp_pte [31:0] $end
$var reg 256 E test_name [255:0] $end
$var reg 32 F vaddr [31:0] $end
$upscope $end
$upscope $end
$enddefinitions $end
#0
$dumpvars
bx F
bx E
bx D
bx C
bx B
b0xxxxxxxxxxxxxxxxxxxxxxxxxxxxxx A
bx @
b10000000000 ?
bx >
bx =
bx <
b0 ;
bx :
bx 9
bx 8
bx 7
bx 6
bx 5
bx 4
b0 3
b0 2
b0 1
b0 0
1/
bx .
b0 -
0,
0+
0*
1)
b0 (
0'
bx &
x%
x$
bx #
x"
x!
$end
#5000
b0 6
b10000000000 7
b0 4
b0 5
b0 =
b0 9
b0 8
b0 >
0$
b0 &
b0 :
0%
b0 #
b0 <
0!
1"
1'
#10000
0'
#15000
0/
1'
#20000
0'
#25000
b1 ;
1+
b0 C
b1010100011101110110111100101101011011000110010101110110011001010110110000111010001000000101011001010000010011100011000100111101001100000010110000100000010101100101000001001110001100000011110100110000 E
b10000000000000000000000001111 D
b0 F
b1 1
1'
#30000
0'
#35000
0"
b1 =
1'
#40000
0'
#45000
b10 ;
1%
b10000000000 &
b10000000000 :
0+
1'
#50000
0'
#55000
b101 ;
1*
1$
0%
b10 =
1'
#60000
0'
#65000
b0 ;
1,
b0 B
b101 =
1!
0$
0*
1'
#70000
0'
#75000
1"
0!
b0 =
1'
#80000
0'
#85000
0,
1'
#90000
0'
#95000
b1 ;
b1000000000000 -
b1000000000000 3
1+
b1000000000000 C
b1010100011101110110111100101101011011000110010101110110011001010110110000111010001000000101011001010000010011100011000100111101001100000010110000100000010101100101000001001110001100000011110100110001 E
b10001000000000000000000001111 D
b1000000000000 F
b1 0
b0 .
1'
#100000
0'
#105000
b100 6
b1 5
b1 =
0"
b1000000000000 >
1'
#110000
0'
#115000
b10 ;
1%
0+
1'
#120000
0'
#125000
b101 ;
1*
b10 =
1$
0%
1'
#130000
0'
#135000
b0 ;
1,
1!
0$
b101 =
0*
1'
#140000
0'
#145000
b0 =
1"
0!
1'
#150000
0'
#155000
0,
1'
#160000
0'
#165000
b1 ;
b10000000000000 -
b10000000000000 3
1+
b10000000000000 C
b1010100011101110110111100101101011011000110010101110110011001010110110000111010001000000101011001010000010011100011000100111101001100000010110000100000010101100101000001001110001100000011110100110010 E
b10010000000000000000000000111 D
b10000000000000 F
b10 0
1'
#170000
0'
#175000
b1000 6
b10 5
0"
b10000000000000 >
b1 =
1'
#180000
0'
#185000
b10 ;
1%
0+
1'
#190000
0'
#195000
b101 ;
1*
1$
0%
b10 =
1'
#200000
0'
#205000
b0 ;
1,
b101 =
1!
0$
0*
1'
#210000
0'
#215000
1"
0!
b0 =
1'
#220000
0'
#225000
0,
1'
#230000
0'
#235000
b1 ;
b11000000000000 -
b11000000000000 3
1+
b11000000000000 C
b1001001011011100111011001100001011011000110100101100100001000000100110000110010001000000110010101101110011101000111001001111001 E
b0 D
b11000000000000 F
b11 0
1'
#240000
0'
#245000
b1100 6
b11 5
b1 =
0"
b11000000000000 >
1'
#250000
0'
#255000
b10 ;
1%
0+
1'
#260000
0'
#265000
b101 ;
1*
b10 =
1$
0%
1'
#270000
0'
#275000
b0 ;
1,
1!
0$
b101 =
0*
1'
#280000
0'
#285000
b0 =
1"
0!
1'
#290000
0'
#295000
0,
1'
#300000
0'
#305000
b1 ;
b100000000000000000000000 -
b100000000000000000000000 3
1+
b100000000000000000000000 C
b1001001011011100111011001100001011011000110100101100100001000000100110000110001001000000110010101101110011101000111001001111001 E
b100000000000000000000000 F
b10 1
1'
#310000
0'
#315000
b10000001000 7
b10 4
b0 6
b0 5
0"
b100000000000000000000000 >
b1 =
1'
#320000
0'
#325000
b10 ;
1%
b10000001000 &
b10000001000 :
0+
1'
#330000
0'
#335000
b101 ;
1*
1$
0%
b10 =
1'
#340000
0'
#345000
b0 ;
1,
b101 =
1!
0$
0*
1'
#350000
0'
#355000
1"
0!
b0 =
1'
#360000
0'
#365000
0,
1'
#370000
0'
#375000
b1 ;
b0 -
b0 3
1+
b0 C
b101011001010000010011100011000100111101001100000010110000100000010101100101000001001110001100000011110100110000 E
b10000000000000000000000001111 D
b0 F
b11 1
1'
#380000
0'
#385000
b10000000000 7
b0 4
b1 =
0"
b0 >
1'
#390000
0'
#395000
b10 ;
1%
b10000000000 &
b10000000000 :
0+
1'
#400000
0'
#405000
b101 ;
1*
b10 =
1$
0%
1'
#410000
0'
#415000
b0 ;
1,
1!
0$
b101 =
0*
1'
#420000
0'
#425000
b0 =
1"
0!
1'
#430000
0'
#435000
0,
1'
#440000
0'
#445000
b1 ;
b1000000000000 -
b1000000000000 3
1+
b1000000000000 C
b101011001010000010011100011000100111101001100000010110000100000010101100101000001001110001100000011110100110001 E
b10001000000000000000000001111 D
b1000000000000 F
b100 0
1'
#450000
0'
#455000
b100 6
b1 5
0"
b1000000000000 >
b1 =
1'
#460000
0'
#465000
b10 ;
1%
0+
1'
#470000
0'
#475000
b101 ;
1*
1$
0%
b10 =
1'
#480000
0'
#485000
b0 ;
1,
b101 =
1!
0$
0*
1'
#490000
0'
#495000
1"
0!
b0 =
1'
#500000
0'
#505000
0,
1'
#510000
0'
#515000
b1 ;
b10000000000000 -
b10000000000000 3
1+
b10000000000000 C
b101011001010000010011100011000100111101001100000010110000100000010101100101000001001110001100000011110100110010 E
b10010000000000000000000000111 D
b10000000000000 F
b101 0
1'
#520000
0'
#525000
b1000 6
b10 5
b1 =
0"
b10000000000000 >
1'
#530000
0'
#535000
b10 ;
1%
0+
1'
#540000
0'
#545000
b101 ;
1*
b10 =
1$
0%
1'
#550000
0'
#555000
b0 ;
1,
1!
0$
b101 =
0*
1'
#560000
0'
#565000
b0 =
1"
0!
1'
#570000
0'
#575000
0,
1'
#580000
0'
#585000
b1 ;
b0 -
b0 3
1+
b0 C
b1000010011000010111001101100101001000000110000101100100011001000111001001100101011100110111001100100000011101100110010101110010011010010110011001101001011000110110000101110100011010010110111101101110 E
b10000000000000000000000001111 D
b0 F
b110 0
1'
#590000
0'
#595000
b0 6
b0 5
0"
b0 >
b1 =
1'
#600000
0'
#605000
b10 ;
1%
0+
1'
#610000
0'
#615000
b101 ;
1*
1$
0%
b10 =
1'
#620000
0'
#625000
b0 ;
1,
b101 =
1!
0$
0*
1'
#630000
0'
#635000
1"
0!
b0 =
1'
#640000
0'
#645000
0,
1'
#650000
0'
#655000
b1 ;
b10000000000000000000000 -
b10000000000000000000000 3
1+
b10000000000000000000000 C
b101011001010000010011100011000100111101001100010010000000101000011011010110010101100111011000010111000001100001011001110110010100100000011001010110111001110100011100100111100100100000011010000110000101101110011001000110110001101001011011100110011100101001 E
b0 D
b10000000000000000000000 F
b111 0
1'
#660000
0'
#665000
b10000000100 7
b1 4
b1 =
0"
b10000000000000000000000 >
1'
#670000
0'
#675000
b10 ;
1%
b10000000100 &
b10000000100 :
0+
1'
#680000
0'
#685000
b101 ;
1*
b10 =
1$
0%
1'
#690000
0'
#695000
b0 ;
1,
1!
0$
b101 =
0*
1'
#700000
0'
#705000
b0 =
1"
0!
1'
#710000
0'
#715000
0,
1'
#720000
0'
#725000
b1 ;
b110000000000000000000000 -
b110000000000000000000000 3
1+
b110000000000000000000000 C
b10101100101000001001110001100010011110100110011001000000010100001101111011101010111010000100000011011110110011000100000011100100110000101101110011001110110010100101001 E
b110000000000000000000000 F
b100 1
1'
#730000
0'
#735000
b10000001100 7
b11 4
0"
b110000000000000000000000 >
b1 =
1'
#740000
0'
#745000
b10 ;
1%
b10000001100 &
b10000001100 :
0+
1'
#750000
0'
#755000
b101 ;
1*
1$
0%
b10 =
1'
#760000
0'
#765000
b0 ;
1,
b101 =
1!
0$
0*
1'
#770000
0'
#775000
1"
0!
b0 =
1'
#780000
0'
#785000
0,
1'
#790000
0'
#795000
b1 ;
b0 -
b0 3
1+
b0 C
b10100110110010101110001011101010110010101101110011101000110100101100001011011000010000000110001 E
b10000000000000000000000001111 D
b0 F
b101 1
1'
#800000
0'
#805000
b10000000000 7
b0 4
b1 =
0"
b0 >
1'
#810000
0'
#815000
b10 ;
1%
b10000000000 &
b10000000000 :
0+
1'
#820000
0'
#825000
b101 ;
1*
b10 =
1$
0%
1'
#830000
0'
#835000
b0 ;
1,
1!
0$
b101 =
0*
1'
#840000
0'
#845000
b0 =
1"
0!
1'
#850000
0'
#855000
0,
1'
#860000
0'
#865000
b1 ;
b1000000000000 -
b1000000000000 3
1+
b1000000000000 C
b10100110110010101110001011101010110010101101110011101000110100101100001011011000010000000110010 E
b10001000000000000000000001111 D
b1000000000000 F
b1000 0
1'
#870000
0'
#875000
b100 6
b1 5
0"
b1000000000000 >
b1 =
1'
#880000
0'
#885000
b10 ;
1%
0+
1'
#890000
0'
#895000
b101 ;
1*
1$
0%
b10 =
1'
#900000
0'
#905000
b0 ;
1,
b101 =
1!
0$
0*
1'
#910000
0'
#915000
1"
0!
b0 =
1'
#920000
0'
#925000
0,
1'
#930000
0'
#935000
b1 ;
b0 -
b0 3
1+
b0 C
b10100110110010101110001011101010110010101101110011101000110100101100001011011000010000000110011001000000010100001110010011001010111000001100101011000010111010000101001 E
b10000000000000000000000001111 D
b0 F
b1001 0
1'
#940000
0'
#945000
b0 6
b0 5
b1 =
0"
b0 >
1'
#950000
0'
#955000
b10 ;
1%
0+
1'
#960000
0'
#965000
b101 ;
1*
b10 =
1$
0%
1'
#970000
0'
#975000
b0 ;
1,
1!
0$
b101 =
0*
1'
#980000
0'
#985000
b0 =
1"
0!
1'
#990000
0'
#995000
0,
1'
#1000000
0'
#1005000
b1 ;
b10000000000000 -
b10000000000000 3
1+
b10000000000000 C
b10100110110010101110001011101010110010101101110011101000110100101100001011011000010000000110100 E
b10010000000000000000000000111 D
b10000000000000 F
b1010 0
1'
#1010000
0'
#1015000
b1000 6
b10 5
0"
b10000000000000 >
b1 =
1'
#1020000
0'
#1025000
b10 ;
1%
0+
1'
#1030000
0'
#1035000
b101 ;
1*
1$
0%
b10 =
1'
#1040000
0'
#1045000
b0 ;
1,
b101 =
1!
0$
0*
1'
#1050000
0'
#1055000
1"
0!
b0 =
1'
#1060000
0'
#1065000
0,
1'
#1070000
0'
#1075000
b1 ;
b0 -
b0 3
1+
b0 C
0)
b1011 0
1'
#1080000
0'
#1085000
b0 6
b0 5
b1 =
0"
b0 >
1'
#1090000
0'
#1095000
1%
0+
1'
#1100000
0'
#1105000
1'
#1110000
0'
#1115000
1'
#1120000
0'
#1125000
1*
1$
0%
b1 ;
1)
1'
#1130000
0'
#1135000
b10 ;
1%
0*
1'
#1140000
0'
#1145000
b101 ;
1*
b10 =
0%
1'
#1150000
0'
#1155000
b0 ;
1,
1!
0$
b101 =
0*
1'
#1160000
0'
#1165000
b0 =
1"
0!
1'
#1170000
0'
#1175000
0,
1'
#1180000
0'
#1185000
b1 ;
b1000000000000 -
b1000000000000 3
1+
b1000000000000 C
b1100 0
1'
#1190000
0'
#1195000
b100 6
b1 5
0"
b1000000000000 >
b1 =
1'
#1200000
0'
#1205000
b10 ;
1%
0+
1'
#1210000
0'
#1215000
b101 ;
1*
1$
0%
b10 =
1'
#1220000
0'
#1225000
b0 ;
1,
b101 =
1!
0$
0*
1'
#1230000
0'
#1235000
1"
0!
b0 =
1'
#1240000
0'
#1245000
0,
1'
#1250000
0'
#1255000
b1101 0
1'
