AE/tlb/verilog/waves/test_integration_tlb_ptw_memory.vcd
$date
	Sun Sep  7 17:54:38 2025
$end
$version
	Icarus Verilog
$end
$timescale
	1s
$end
$scope module test_integration_tlb_ptw_memory $end
$var wire 32 ! tlb_ptw_vaddr [31:0] $end
$var wire 1 " tlb_ptw_resp_valid $end
$var wire 1 # tlb_ptw_resp_ready $end
$var wire 1 $ tlb_ptw_req_valid $end
$var wire 1 % tlb_ptw_req_ready $end
$var wire 32 & tlb_ptw_pte [31:0] $end
$var wire 1 ' ptw_mem_resp_valid $end
$var wire 1 ( ptw_mem_resp_ready $end
$var wire 1 ) ptw_mem_req_valid $end
$var wire 1 * ptw_mem_req_ready $end
$var wire 32 + ptw_mem_data [31:0] $end
$var wire 32 , ptw_mem_addr [31:0] $end
$var wire 1 - cpu_resp_valid $end
$var wire 1 . cpu_req_ready $end
$var wire 32 / cpu_paddr [31:0] $end
$var wire 1 0 cpu_hit $end
$var wire 1 1 cpu_fault $end
$var reg 1 2 clk $end
$var reg 1 3 cpu_access_type $end
$var reg 1 4 cpu_req_valid $end
$var reg 1 5 cpu_resp_ready $end
$var reg 32 6 cpu_vaddr [31:0] $end
$var reg 32 7 expected_paddr [31:0] $end
$var reg 1 8 rst $end
$var reg 1 9 task_fault_result $end
$var reg 1 : task_hit_result $end
$var reg 32 ; task_paddr_result [31:0] $end
$var reg 32 < test_vaddr [31:0] $end
$var integer 32 = active_translations [31:0] $end
$var integer 32 > cycle_count [31:0] $end
$var integer 32 ? fault_count [31:0] $end
$var integer 32 @ hit_count [31:0] $end
$var integer 32 A i [31:0] $end
$var integer 32 B memory_accesses [31:0] $end
$var integer 32 C miss_count [31:0] $end
$var integer 32 D ptw_requests [31:0] $end
$var integer 32 E test_failed [31:0] $end
$var integer 32 F test_passed [31:0] $end
$var integer 32 G tlb_lookups [31:0] $end
$var integer 32 H total_requests [31:0] $end
$scope module memory_inst $end
$var wire 1 2 clk $end
$var wire 1 8 rst $end
$var wire 10 I word_index [9:0] $end
$var wire 1 ( mem_resp_ready_i $end
$var wire 1 ) mem_req_valid_i $end
$var wire 32 J mem_addr_i [31:0] $end
$var wire 1 K addr_valid $end
$var reg 32 L mem_addr_reg [31:0] $end
$var reg 32 M mem_data_o [31:0] $end
$var reg 1 * mem_req_ready_o $end
$var reg 1 ' mem_resp_valid_o $end
$var reg 2 N next_state [1:0] $end
$var reg 2 O state [1:0] $end
$var integer 32 P i [31:0] $end
$upscope $end
$scope module ptw_inst $end
$var wire 1 2 clk $end
$var wire 32 Q mem_data_i [31:0] $end
$var wire 1 * mem_req_ready_i $end
$var wire 1 ' mem_resp_valid_i $end
$var wire 1 8 rst $end
$var wire 10 R vpn1 [9:0] $end
$var wire 10 S vpn0 [9:0] $end
$var wire 32 T ptw_vaddr_i [31:0] $end
$var wire 1 # ptw_resp_ready_i $end
$var wire 1 $ ptw_req_valid_i $end
$var wire 32 U level2_pte_addr [31:0] $end
$var wire 32 V level1_pte_addr [31:0] $end
$var reg 32 W level1_pte [31:0] $end
$var reg 32 X level2_pte [31:0] $end
$var reg 32 Y mem_addr_o [31:0] $end
$var reg 1 ) mem_req_valid_o $end
$var reg 1 ( mem_resp_ready_o $end
$var reg 3 Z next_state [2:0] $end
$var reg 32 [ ptw_pte_o [31:0] $end
$var reg 1 % ptw_req_ready_o $end
$var reg 1 " ptw_resp_valid_o $end
$var reg 3 \ state [2:0] $end
$var reg 32 ] vaddr_reg [31:0] $end
$upscope $end
$scope module tlb_inst $end
$var wire 1 3 access_type_i $end
$var wire 1 2 clk $end
$var wire 32 ^ ptw_pte_i [31:0] $end
$var wire 1 % ptw_req_ready_i $end
$var wire 1 " ptw_resp_valid_i $end
$var wire 1 4 req_valid_i $end
$var wire 1 5 resp_ready_i $end
$var wire 1 8 rst $end
$var wire 32 _ vaddr_i [31:0] $end
$var wire 20 ` vpn [19:0] $end
$var wire 1 a update_en $end
$var wire 3 b state [2:0] $end
$var wire 4 c set_index [3:0] $end
$var wire 1 - resp_valid_o $end
$var wire 1 . req_ready_o $end
$var wire 2 d replace_way [1:0] $end
$var wire 1 # ptw_resp_ready_o $end
$var wire 1 $ ptw_req_valid_o $end
$var wire 1 e perm_fault $end
$var wire 12 f page_offset [11:0] $end
$var wire 3 g next_state [2:0] $end
$var wire 4 h max_lru_value [3:0] $end
$var wire 1 i lru_update_en $end
$var wire 1 j lookup_en $end
$var wire 2 k hit_way [1:0] $end
$var wire 20 l hit_ppn [19:0] $end
$var wire 2 m hit_perms [1:0] $end
$var wire 1 n hit $end
$var reg 1 o access_type_reg $end
$var reg 1 1 fault_o $end
$var reg 1 0 hit_o $end
$var reg 32 p paddr_o [31:0] $end
$var reg 32 q pte_reg [31:0] $end
$var reg 32 r ptw_vaddr_o [31:0] $end
$var reg 32 s vaddr_reg [31:0] $end
$var reg 1 t wr_en $end
$var reg 4 u wr_lru_count [3:0] $end
$var reg 2 v wr_perms [1:0] $end
$var reg 20 w wr_ppn [19:0] $end
$var reg 1 x wr_valid $end
$var reg 20 y wr_vpn [19:0] $end
$var reg 2 z wr_way [1:0] $end
$scope module controller $end
$var wire 1 2 clk $end
$var wire 1 % ptw_req_ready_i $end
$var wire 1 " ptw_resp_valid_i $end
$var wire 1 4 req_valid_i $end
$var wire 1 5 resp_ready_i $end
$var wire 1 8 rst $end
$var wire 1 e perm_fault $end
$var wire 1 n hit $end
$var reg 1 j lookup_en $end
$var reg 1 i lru_update_en $end
$var reg 3 { next_state [2:0] $end
$var reg 1 $ ptw_req_valid_o $end
$var reg 1 # ptw_resp_ready_o $end
$var reg 1 . req_ready_o $end
$var reg 1 - resp_valid_o $end
$var reg 3 | state [2:0] $end
$var reg 1 a update_en $end
$upscope $end
$scope module lookup $end
$var wire 1 o access_type $end
$var wire 1 e perm_fault $end
$var wire 32 } vaddr [31:0] $end
$var wire 20 ~ vpn [19:0] $end
$var wire 4 !" set_index [3:0] $end
$var wire 12 "" page_offset [11:0] $end
$var wire 4 #" match [3:0] $end
$var wire 2 $" hit_way [1:0] $end
$var wire 20 %" hit_ppn [19:0] $end
$var wire 2 &" hit_perms [1:0] $end
$var wire 1 n hit $end
$scope begin match_gen[0] $end
$upscope $end
$scope begin match_gen[1] $end
$upscope $end
$scope begin match_gen[2] $end
$upscope $end
$scope begin match_gen[3] $end
$upscope $end
$upscope $end
$scope module lru $end
$var reg 4 '" max_lru_value [3:0] $end
$var reg 4 (" min_lru_value [3:0] $end
$var reg 2 )" replace_way [1:0] $end
$var integer 32 *" i [31:0] $end
$upscope $end
$scope module storage $end
$var wire 1 2 clk $end
$var wire 4 +" lru_set_index [3:0] $end
$var wire 1 ," lru_update_en $end
$var wire 4 -" lru_value [3:0] $end
$var wire 2 ." lru_way [1:0] $end
$var wire 4 /" rd_set_index [3:0] $end
$var wire 1 8 rst $end
$var wire 1 t wr_en $end
$var wire 4 0" wr_lru_count [3:0] $end
$var wire 2 1" wr_perms [1:0] $end
$var wire 20 2" wr_ppn [19:0] $end
$var wire 4 3" wr_set_index [3:0] $end
$var wire 1 x wr_valid $end
$var wire 20 4" wr_vpn [19:0] $end
$var wire 2 5" wr_way [1:0] $end
$var integer 32 6" r [31:0] $end
$scope begin $unm_blk_37 $end
$var integer 32 7" s [31:0] $end
$var integer 32 8" w [31:0] $end
$upscope $end
$scope begin $unm_blk_43 $end
$var integer 32 9" s [31:0] $end
$var integer 32 :" w [31:0] $end
$upscope $end
$upscope $end
$upscope $end
$scope task complete_translation $end
$var reg 1 ;" access_type $end
$var reg 1 <" fault_result $end
$var reg 1 =" hit_result $end
$var reg 32 >" paddr_result [31:0] $end
$var reg 32 ?" vaddr [31:0] $end
$upscope $end
$scope task reset_system $end
$upscope $end
$scope task verify_translation $end
$var reg 1 @" access_type $end
$var reg 1 A" expected_fault $end
$var reg 1 B" expected_hit $end
$var reg 32 C" expected_paddr [31:0] $end
$var reg 256 D" test_name [255:0] $end
$var reg 32 E" vaddr [31:0] $end
$upscope $end
$upscope $end
$enddefinitions $end
#0
$dumpvars
bx E"
bx D"
bx C"
xB"
xA"
x@"
bx ?"
bx >"
x="
x<"
x;"
bx :"
bx 9"
b100 8"
b10000 7"
b100 6"
bx 5"
bx 4"
bx 3"
bx 2"
bx 1"
bx 0"
bx /"
bx ."
bx -"
x,"
bx +"
bx *"
bx )"
bx ("
bx '"
bx &"
bx %"
bx $"
bx #"
bx ""
bx !"
bx ~
bx }
bx |
b0 {
bx z
bx y
xx
bx w
bx v
bx u
xt
bx s
bx r
bx q
bx p
xo
xn
bx m
bx l
bx k
xj
xi
bx h
b0 g
bx f
xe
bx d
bx c
bx b
xa
bx `
b0 _
bx ^
bx ]
bx \
bx [
bx Z
bx Y
bx X
bx W
bx V
bx U
bx T
bx S
bx R
bx Q
b10000000000 P
bx O
bx N
bx M
bx L
xK
bx J
bx I
b0 H
bx G
b0 F
b0 E
bx D
b0 C
bx B
bx A
b0 @
b0 ?
bx >
bx =
bx <
bx ;
x:
x9
18
bx 7
b0 6
05
04
03
02
x1
x0
bx /
x.
x-
bx ,
bx +
x*
x)
x(
x'
bx &
x%
x$
x#
x"
bx !
$end
#5
1e
b1 -"
b0 k
b0 $"
b0 ."
b0 l
b0 %"
b0 m
b0 &"
0n
b100 *"
b0 h
b0 '"
b0 ("
b0 d
b0 )"
b0 #"
0,"
b100 6"
b0 `
b0 ~
b0 c
b0 !"
b0 +"
b0 /"
b0 3"
b0 f
b0 ""
b0 U
b10000000000 V
b0 R
b0 S
b0 N
b0 I
1K
b0 Z
0i
0a
0j
0#
0$
0-
1.
b0 b
b0 |
0t
01
00
b0 /
b0 p
b0 !
b0 T
b0 r
b0 q
0o
b0 s
b0 }
b0 \
b0 X
b0 W
b0 ]
0(
b0 ,
b0 J
b0 Y
0)
b0 &
b0 [
b0 ^
0"
1%
b0 O
b0 L
b0 +
b0 M
b0 Q
0'
1*
b100 :"
b10000 9"
b0 B
b0 D
b0 G
b0 =
b0 >
12
#10
02
#15
b100 :"
b10000 9"
b1 >
08
12
#20
02
#25
b1 g
b1 {
14
0;"
b0 ?"
b100011001101001011100100111001101110100001000000111010001110010011000010110111001110011011011000110000101110100011010010110111101101110001000000010110100100000011100000110000101100111011001010010000001110111011000010110110001101011 D"
0A"
0B"
b10000000000000000000000000000 C"
0@"
b0 E"
b1 F
b10 >
12
#30
02
#35
b10 g
b10 {
1j
0.
b1 b
b1 |
b1 G
b11 >
12
#40
02
#45
b1 Z
0j
1$
b10 b
b10 |
b11 g
b11 {
04
b100 >
12
#50
02
#55
0%
b1 \
1#
0$
b11 b
b11 |
b1 D
b101 >
12
#60
02
#65
b1 N
b10 Z
1)
b10000000000 ,
b10000000000 J
b10000000000 Y
b110 >
12
#70
02
#75
b100000000 I
b10 N
0*
b10000000000 L
b1 O
1(
0)
b10 \
b1 B
b111 >
12
#80
02
#85
b0 N
b11 Z
b10 O
1'
b100000000001 +
b100000000001 M
b100000000001 Q
b1000 >
12
#90
02
#95
b100000000000 U
1*
0'
b0 O
0(
b100000000001 W
b11 \
b1001 >
12
#100
02
#105
b1 N
b100 Z
1)
b100000000000 ,
b100000000000 J
b100000000000 Y
b1010 >
12
#110
02
#115
b1000000000 I
b10 N
0*
b100000000000 L
b1 O
1(
0)
b100 \
b10 B
b1011 >
12
#120
02
#125
b0 N
b101 Z
b10 O
1'
b10000000000000000000000001111 +
b10000000000000000000000001111 M
b10000000000000000000000001111 Q
b1100 >
12
#130
02
#135
b100 g
b100 {
b0 Z
1*
0'
b0 O
1"
b10000000000000000000000001111 &
b10000000000000000000000001111 [
b10000000000000000000000001111 ^
0(
b10000000000000000000000001111 X
b101 \
b1101 >
12
#140
02
#145
b101 g
b101 {
1i
1a
0#
b100 b
b100 |
b10000000000000000000000001111 q
b0 \
1%
0"
b1110 >
12
#150
02
#155
b0 g
b0 {
15
0<"
0="
b10000000000000000000000000000 >"
b10000000000000000000000000000 /
b10000000000000000000000000000 p
b0 u
b0 0"
b11 v
b11 1"
b10000000000000000 w
b10000000000000000 2"
b0 y
b0 4"
1x
b0 z
b0 5"
1t
0i
0a
1-
b101 b
b101 |
b1111 >
12
#160
02
#165
0e
b10000000000000000 l
b10000000000000000 %"
b11 m
b11 &"
1n
b1 #"
b100 6"
0-
1.
b0 b
b0 |
0t
b1 =
b10000 >
12
#170
02
#175
b1 g
b1 {
b100100011 6
b100100011 _
14
b100100011 ?"
b1010100010011000100001000100000011010000110100101110100001000000010110100100000011100110110000101101101011001010010000001110000011000010110011101100101 D"
1B"
b10000000000000000000100100011 C"
b100100011 E"
b10 F
09
0:
b10000000000000000000000000000 ;
b1 C
b1 H
05
b10001 >
12
#180
02
#185
b101 g
b101 {
b100100011 f
b100100011 ""
1j
0.
b1 b
b1 |
b100100011 s
b100100011 }
b10 G
b10010 >
12
#190
02
#195
1,"
15
1="
b10000000000000000000100100011 >"
10
b10000000000000000000100100011 /
b10000000000000000000100100011 p
1i
0j
1-
b101 b
b101 |
b0 g
b0 {
04
b10011 >
12
#200
02
#205
0,"
b1 d
b1 )"
b100 *"
b1 h
b1 '"
b0 ("
b10 -"
b100 6"
0i
0-
1.
b0 b
b0 |
00
b10 =
b10100 >
12
#210
02
#215
b1 g
b1 {
b1000000000000 6
b1000000000000 _
14
b1000000000000 ?"
b10001000110100101100110011001100110010101110010011001010110111001110100001000000111000001100001011001110110010100100000001011010010000001110011011000010110110101100101001000000100110000110010 D"
0B"
b10001000000000000000000000000 C"
b1000000000000 E"
b11 F
1:
b10000000000000000000100100011 ;
b1 @
b10 H
05
b10101 >
12
#220
02
#225
1e
b100 *"
b0 h
b0 '"
b0 d
b0 )"
b0 m
b0 &"
b0 l
b0 %"
0n
b0 #"
b1 -"
b100 6"
b10 g
b10 {
b1 `
b1 ~
b1 c
b1 !"
b1 +"
b1 /"
b1 3"
b0 f
b0 ""
1j
0.
b1 b
b1 |
b1000000000000 s
b1000000000000 }
b11 G
b10110 >
12
#230
02
#235
b1 Z
b1000000000000 !
b1000000000000 T
b1000000000000 r
0j
1$
b10 b
b10 |
b11 g
b11 {
04
b10111 >
12
#240
02
#245
b100000000100 U
b1 S
1#
0$
b11 b
b11 |
b1 \
0%
b1000000000000 ]
b10 D
b11000 >
12
#250
02
#255
b1 N
b10 Z
1)
b10000000000 ,
b10000000000 J
b10000000000 Y
b11001 >
12
#260
02
#265
b10 N
b100000000 I
b10 \
1(
0)
b1 O
0*
b10000000000 L
b11 B
b11010 >
12
#270
02
#275
b11 Z
b0 N
1'
b100000000001 +
b100000000001 M
b100000000001 Q
b10 O
b11011 >
12
#280
02
#285
b11 \
0(
b0 O
1*
0'
b11100 >
12
#290
02
#295
b1 N
b100 Z
1)
b100000000100 ,
b100000000100 J
b100000000100 Y
b11101 >
12
#300
02
#305
b10 N
b1000000001 I
b100 \
1(
0)
b1 O
0*
b100000000100 L
b100 B
b11110 >
12
#310
02
#315
b101 Z
b0 N
1'
b10001000000000000000000001111 +
b10001000000000000000000001111 M
b10001000000000000000000001111 Q
b10 O
b11111 >
12
#320
02
#325
b100 g
b100 {
b0 Z
b101 \
1"
b10001000000000000000000001111 &
b10001000000000000000000001111 [
b10001000000000000000000001111 ^
0(
b10001000000000000000000001111 X
b0 O
1*
0'
b100000 >
12
#330
02
#335
b101 g
b101 {
1%
0"
b0 \
b10001000000000000000000001111 q
1i
1a
0#
b100 b
b100 |
b100001 >
12
#340
02
#345
b0 g
b0 {
15
0="
b10001000000000000000000000000 >"
0i
0a
1-
b101 b
b101 |
b10001000000000000000000000000 /
b10001000000000000000000000000 p
b10001000000000000 w
b10001000000000000 2"
b1 y
b1 4"
1t
b100010 >
12
#350
02
#355
0e
b10001000000000000 l
b10001000000000000 %"
b11 m
b11 &"
1n
b1 #"
b100 6"
0t
0-
1.
b0 b
b0 |
b11 =
b100011 >
12
#360
02
#365
b1 g
b1 {
b1101010111100 6
b1101010111100 _
14
b1101010111100 ?"
b10010000110100101110100001000000110111101101110001000000111001101100101011000110110111101101110011001000010000001110000011000010110011101100101 D"
1B"
b10001000000000000101010111100 C"
b1101010111100 E"
b100 F
0:
b10001000000000000000000000000 ;
b10 C
b11 H
05
b100100 >
12
#370
02
#375
b101010111100 f
b101010111100 ""
b101 g
b101 {
b1101010111100 s
b1101010111100 }
1j
0.
b1 b
b1 |
b100 G
b100101 >
12
#380
02
#385
1,"
15
1="
b10001000000000000101010111100 >"
1i
0j
1-
b101 b
b101 |
10
b10001000000000000101010111100 /
b10001000000000000101010111100 p
b0 g
b0 {
04
b100110 >
12
#390
02
#395
b1 d
b1 )"
b100 *"
b1 h
b1 '"
b0 ("
0,"
b10 -"
b100 6"
00
0i
0-
1.
b0 b
b0 |
b100 =
b100111 >
12
#400
02
#405
b1 g
b1 {
b10000000000000 6
b10000000000000 _
14
b10000000000000 ?"
b1010100011010000110100101110010011001000010000001110000011000010110011101100101001000000111010001110010011000010110111001110011011011000110000101110100011010010110111101101110 D"
0B"
b10010000000000000000000000000 C"
b10000000000000 E"
b101 F
1:
b10001000000000000101010111100 ;
b10 @
b100 H
05
b101000 >
12
#410
02
#415
1e
b100 *"
b0 h
b0 '"
b0 d
b0 )"
b0 m
b0 &"
b0 l
b0 %"
0n
b0 #"
b1 -"
b100 6"
b10 `
b10 ~
b10 c
b10 !"
b10 +"
b10 /"
b10 3"
b0 f
b0 ""
b10 g
b10 {
b10000000000000 s
b10000000000000 }
1j
0.
b1 b
b1 |
b101 G
b101001 >
12
#420
02
#425
b1 Z
0j
1$
b10 b
b10 |
b10000000000000 !
b10000000000000 T
b10000000000000 r
b11 g
b11 {
04
b101010 >
12
#430
02
#435
b100000001000 U
b10 S
0%
b10000000000000 ]
b1 \
1#
0$
b11 b
b11 |
b11 D
b101011 >
12
#440
02
#445
b1 N
b10 Z
1)
b10000000000 ,
b10000000000 J
b10000000000 Y
b101100 >
12
#450
02
#455
b100000000 I
b10 N
0*
b10000000000 L
b1 O
1(
0)
b10 \
b101 B
b101101 >
12
#460
02
#465
b0 N
b11 Z
b10 O
1'
b100000000001 +
b100000000001 M
b100000000001 Q
b101110 >
12
#470
02
#475
1*
0'
b0 O
0(
b11 \
b101111 >
12
#480
02
#485
b1 N
b100 Z
1)
b100000001000 ,
b100000001000 J
b100000001000 Y
b110000 >
12
#490
02
#495
b1000000010 I
b10 N
0*
b100000001000 L
b1 O
1(
0)
b100 \
b110 B
b110001 >
12
#500
02
#505
b0 N
b101 Z
b10 O
1'
b10010000000000000000000000111 +
b10010000000000000000000000111 M
b10010000000000000000000000111 Q
b110010 >
12
#510
02
#515
b100 g
b100 {
b0 Z
1*
0'
b0 O
1"
b10010000000000000000000000111 &
b10010000000000000000000000111 [
b10010000000000000000000000111 ^
0(
b10010000000000000000000000111 X
b101 \
b110011 >
12
#520
02
#525
b101 g
b101 {
1i
1a
0#
b100 b
b100 |
b10010000000000000000000000111 q
b0 \
1%
0"
b110100 >
12
#530
02
#535
b0 g
b0 {
15
0="
b10010000000000000000000000000 >"
b10010000000000000000000000000 /
b10010000000000000000000000000 p
b10010000000000000 w
b10010000000000000 2"
b10 y
b10 4"
1t
0i
0a
1-
b101 b
b101 |
b110101 >
12
#540
02
#545
0e
b10010000000000000 l
b10010000000000000 %"
b11 m
b11 &"
1n
b1 #"
b100 6"
0-
1.
b0 b
b0 |
0t
b101 =
b110110 >
12
#550
02
#555
b1 g
b1 {
13
b10010001010110 6
b10010001010110 _
14
1;"
b10010001010110 ?"
b101011101110010011010010111010001100101001000000111010001101111001000000101001000101011010101110010000001110000011000010110011101100101001000000010100001101000011010010111010000101001 D"
1B"
b10010000000000000010001010110 C"
1@"
b10010001010110 E"
b110 F
0:
b10010000000000000000000000000 ;
b11 C
b101 H
05
b110111 >
12
#560
02
#565
b101 g
b101 {
b10001010110 f
b10001010110 ""
1j
0.
b1 b
b1 |
1o
b10010001010110 s
b10010001010110 }
b110 G
b111000 >
12
#570
02
#575
1,"
15
1="
b10010000000000000010001010110 >"
10
b10010000000000000010001010110 /
b10010000000000000010001010110 p
1i
0j
1-
b101 b
b101 |
b0 g
b0 {
04
b111001 >
12
#580
02
#585
0,"
b1 d
b1 )"
b100 *"
b1 h
b1 '"
b0 ("
b10 -"
b100 6"
0i
0-
1.
b0 b
b0 |
00
b110 =
b111010 >
12
#590
02
#595
b1 g
b1 {
b11110001001 6
b11110001001 _
14
b11110001001 ?"
b1010111011100100110100101110100011001010010000001110100011011110010000001010010001010110101011100101011010110000010000001110000011000010110011101100101001000000010100001101000011010010111010000101001 D"
b10000000000000000011110001001 C"
b11110001001 E"
b111 F
1:
b10010000000000000010001010110 ;
b11 @
b110 H
05
b111011 >
12
#600
02
#605
b10000000000000000 l
b10000000000000000 %"
b100 6"
b101 g
b101 {
b0 `
b0 ~
b0 c
b0 !"
b0 +"
b0 /"
b0 3"
b11110001001 f
b11110001001 ""
1j
0.
b1 b
b1 |
b11110001001 s
b11110001001 }
b111 G
b111100 >
12
#610
02
#615
1,"
15
b10000000000000000011110001001 >"
10
b10000000000000000011110001001 /
b10000000000000000011110001001 p
1i
0j
1-
b101 b
b101 |
b0 g
b0 {
04
b111101 >
12
#620
02
#625
0,"
b100 *"
b10 h
b10 '"
b0 ("
b1 d
b1 )"
b11 -"
b100 6"
0i
0-
1.
b0 b
b0 |
00
b111 =
b111110 >
12
#630
02
#635
b1 g
b1 {
03
b0 6
b0 _
14
0;"
b0 ?"
b10000000000000000000000000000 7
b0 <
b0 A
b1000 F
b10000000000000000011110001001 ;
b100 @
b111 H
05
b111111 >
12
#640
02
#645
b101 g
b101 {
b0 f
b0 ""
1j
0.
b1 b
b1 |
0o
b0 s
b0 }
b1000 G
b1000000 >
12
#650
02
#655
1,"
15
b10000000000000000000000000000 >"
10
b10000000000000000000000000000 /
b10000000000000000000000000000 p
1i
0j
1-
b101 b
b101 |
b0 g
b0 {
04
b1000001 >
12
#660
02
#665
0,"
b100 *"
b11 h
b11 '"
b0 ("
b1 d
b1 )"
b100 -"
b100 6"
0i
0-
1.
b0 b
b0 |
00
b1000 =
b1000010 >
12
#670
02
#675
b1 g
b1 {
b10000000000000 6
b10000000000000 _
14
b10000000000000 ?"
b10001000000000000000000000000 7
b10000000000000 <
b1 A
b10000000000000000000000000000 ;
b101 @
b1000 H
05
b1000011 >
12
#680
02
#685
b100 *"
b1 h
b1 '"
b0 ("
b1 d
b1 )"
b10010000000000000 l
b10010000000000000 %"
b10 -"
b100 6"
b101 g
b101 {
b10 `
b10 ~
b10 c
b10 !"
b10 +"
b10 /"
b10 3"
1j
0.
b1 b
b1 |
b10000000000000 s
b10000000000000 }
b1001 G
b1000100 >
12
#690
02
#695
1,"
15
b10010000000000000000000000000 >"
10
b10010000000000000000000000000 /
b10010000000000000000000000000 p
1i
0j
1-
b101 b
b101 |
b0 g
b0 {
04
b1000101 >
12
#700
02
#705
0,"
b100 *"
b10 h
b10 '"
b0 ("
b1 d
b1 )"
b11 -"
b100 6"
0i
0-
1.
b0 b
b0 |
00
b1001 =
b1000110 >
12
#710
02
#715
b1 g
b1 {
b100000000000000 6
b100000000000000 _
14
b100000000000000 ?"
b10010000000000000000000000000 7
b100000000000000 <
b10 A
b10010000000000000000000000000 ;
b110 @
b1001 H
05
b1000111 >
12
#720
02
#725
1e
b100 *"
b0 h
b0 '"
b0 d
b0 )"
b0 m
b0 &"
b0 l
b0 %"
0n
b0 #"
b1 -"
b100 6"
b10 g
b10 {
b100 `
b100 ~
b100 c
b100 !"
b100 +"
b100 /"
b100 3"
1j
0.
b1 b
b1 |
b100000000000000 s
b100000000000000 }
b1010 G
b1001000 >
12
#730
02
#735
b1 Z
b100000000000000 !
b100000000000000 T
b100000000000000 r
0j
1$
b10 b
b10 |
b11 g
b11 {
04
b1001001 >
12
#740
02
#745
b100000010000 U
b100 S
1#
0$
b11 b
b11 |
b1 \
0%
b100000000000000 ]
b100 D
b1001010 >
12
#750
02
#755
b1 N
b10 Z
1)
b10000000000 ,
b10000000000 J
b10000000000 Y
b1001011 >
12
#760
02
#765
b10 N
b100000000 I
b10 \
1(
0)
b1 O
0*
b10000000000 L
b111 B
b1001100 >
12
#770
02
#775
b11 Z
b0 N
1'
b100000000001 +
b100000000001 M
b100000000001 Q
b10 O
b1001101 >
12
#780
02
#785
b11 \
0(
b0 O
1*
0'
b1001110 >
12
#790
02
#795
b1 N
b100 Z
1)
b100000010000 ,
b100000010000 J
b100000010000 Y
b1001111 >
12
#800
02
#805
b10 N
b1000000100 I
b100 \
1(
0)
b1 O
0*
b100000010000 L
b1000 B
b1010000 >
12
#810
02
#815
b101 Z
b0 N
1'
b0 +
b0 M
b0 Q
b10 O
b1010001 >
12
#820
02
#825
b100 g
b100 {
b0 Z
b101 \
1"
b0 &
b0 [
b0 ^
0(
b0 X
b0 O
1*
0'
b1010010 >
12
#830
02
#835
b101 g
b101 {
1%
0"
b0 \
b0 q
1i
1a
0#
b100 b
b100 |
b1010011 >
12
#840
02
#845
b0 g
b0 {
15
1<"
0="
b0 >"
0i
0a
1-
b101 b
b101 |
11
b0 /
b0 p
b1010100 >
12
#850
02
#855
01
0-
1.
b0 b
b0 |
b1010 =
b1010101 >
12
#860
02
#865
b1 g
b1 {
b11000000000000 6
b11000000000000 _
14
b11000000000000 ?"
b10000000000000000000000000000 7
b11000000000000 <
b11 A
19
0:
b0 ;
b1 ?
b100 C
b1010 H
05
b1010110 >
12
#870
02
#875
b100 6"
b11 `
b11 ~
b11 c
b11 !"
b11 +"
b11 /"
b11 3"
b10 g
b10 {
b11000000000000 s
b11000000000000 }
1j
0.
b1 b
b1 |
b1011 G
b1010111 >
12
#880
02
#885
b1 Z
0j
1$
b10 b
b10 |
b11000000000000 !
b11000000000000 T
b11000000000000 r
b11 g
b11 {
04
b1011000 >
12
#890
02
#895
b100000001100 U
b11 S
0%
b11000000000000 ]
b1 \
1#
0$
b11 b
b11 |
b101 D
b1011001 >
12
#900
02
#905
b1 N
b10 Z
1)
b10000000000 ,
b10000000000 J
b10000000000 Y
b1011010 >
12
#910
02
#915
b100000000 I
b10 N
0*
b10000000000 L
b1 O
1(
0)
b10 \
b1001 B
b1011011 >
12
#920
02
#925
b0 N
b11 Z
b10 O
1'
b100000000001 +
b100000000001 M
b100000000001 Q
b1011100 >
12
#930
02
#935
1*
0'
b0 O
0(
b11 \
b1011101 >
12
#940
02
#945
b1 N
b100 Z
1)
b100000001100 ,
b100000001100 J
b100000001100 Y
b1011110 >
12
#950
02
#955
b1000000011 I
b10 N
0*
b100000001100 L
b1 O
1(
0)
b100 \
b1010 B
b1011111 >
12
#960
02
#965
b0 N
b101 Z
b10 O
1'
b0 +
b0 M
b0 Q
b1100000 >
12
#970
02
#975
b100 g
b100 {
b0 Z
1*
0'
b0 O
1"
0(
b101 \
b1100001 >
12
#980
02
#985
b101 g
b101 {
1i
1a
0#
b100 b
b100 |
b0 \
1%
0"
b1100010 >
12
#990
02
#995
b0 g
b0 {
15
11
0i
0a
1-
b101 b
b101 |
b1100011 >
12
#1000
02
#1005
0-
1.
b0 b
b0 |
01
b1011 =
b1100100 >
12
#1010
02
#1015
b1 g
b1 {
b101000000000000 6
b101000000000000 _
14
b101000000000000 ?"
b10001000000000000000000000000 7
b101000000000000 <
b100 A
b10 ?
b101 C
b1011 H
05
b1100101 >
12
#1020
02
#1025
b100 6"
b10 g
b10 {
b101 `
b101 ~
b101 c
b101 !"
b101 +"
b101 /"
b101 3"
1j
0.
b1 b
b1 |
b101000000000000 s
b101000000000000 }
b1100 G
b1100110 >
12
#1030
02
#1035
b1 Z
b101000000000000 !
b101000000000000 T
b101000000000000 r
0j
1$
b10 b
b10 |
b11 g
b11 {
04
b1100111 >
12
#1040
02
#1045
b100000010100 U
b101 S
1#
0$
b11 b
b11 |
b1 \
0%
b101000000000000 ]
b110 D
b1101000 >
12
#1050
02
#1055
b1 N
b10 Z
1)
b10000000000 ,
b10000000000 J
b10000000000 Y
b1101001 >
12
#1060
02
#1065
b10 N
b100000000 I
b10 \
1(
0)
b1 O
0*
b10000000000 L
b1011 B
b1101010 >
12
#1070
02
#1075
b11 Z
b0 N
1'
b100000000001 +
b100000000001 M
b100000000001 Q
b10 O
b1101011 >
12
#1080
02
#1085
b11 \
0(
b0 O
1*
0'
b1101100 >
12
#1090
02
#1095
b1 N
b100 Z
1)
b100000010100 ,
b100000010100 J
b100000010100 Y
b1101101 >
12
#1100
02
#1105
b10 N
b1000000101 I
b100 \
1(
0)
b1 O
0*
b100000010100 L
b1100 B
b1101110 >
12
#1110
02
#1115
b101 Z
b0 N
1'
b0 +
b0 M
b0 Q
b10 O
b1101111 >
12
#1120
02
#1125
b100 g
b100 {
b0 Z
b101 \
1"
0(
b0 O
1*
0'
b1110000 >
12
#1130
02
#1135
b101 g
b101 {
1%
0"
b0 \
1i
1a
0#
b100 b
b100 |
b1110001 >
12
#1140
02
#1145
b0 g
b0 {
15
0i
0a
1-
b101 b
b101 |
11
b1110010 >
12
#1150
02
#1155
01
0-
1.
b0 b
b0 |
b1100 =
b1110011 >
12
#1160
02
#1165
b1 g
b1 {
b111000000000000 6
b111000000000000 _
14
b111000000000000 ?"
b10010000000000000000000000000 7
b111000000000000 <
b101 A
b11 ?
b110 C
b1100 H
05
b1110100 >
12
#1170
02
#1175
b100 6"
b111 `
b111 ~
b111 c
b111 !"
b111 +"
b111 /"
b111 3"
b10 g
b10 {
b111000000000000 s
b111000000000000 }
1j
0.
b1 b
b1 |
b1101 G
b1110101 >
12
#1180
02
#1185
b1 Z
0j
1$
b10 b
b10 |
b111000000000000 !
b111000000000000 T
b111000000000000 r
b11 g
b11 {
04
b1110110 >
12
#1190
02
