AE/tlb/verilog/waves/test_integration_memory_ptw.vcd
$date
	Sun Sep  7 17:54:38 2025
$end
$version
	Icarus Verilog
$end
$timescale
	1s
$end
$scope module test_integration_memory_ptw $end
$var wire 1 ! ptw_resp_valid_o $end
$var wire 1 " ptw_req_ready_o $end
$var wire 32 # ptw_pte_o [31:0] $end
$var wire 1 $ mem_resp_valid $end
$var wire 1 % mem_resp_ready $end
$var wire 1 & mem_req_valid $end
$var wire 1 ' mem_req_ready $end
$var wire 32 ( mem_data [31:0] $end
$var wire 32 ) mem_addr [31:0] $end
$var reg 1 * clk $end
$var reg 32 + expected_pte [31:0] $end
$var reg 1 , ptw_req_valid_i $end
$var reg 1 - ptw_resp_ready_i $end
$var reg 32 . ptw_vaddr_i [31:0] $end
$var reg 32 / received_pte [31:0] $end
$var reg 1 0 rst $end
$var integer 32 1 active_translations [31:0] $end
$var integer 32 2 i [31:0] $end
$var integer 32 3 test_failed [31:0] $end
$var integer 32 4 test_passed [31:0] $end
$var integer 32 5 total_cycles [31:0] $end
$scope module mem_inst $end
$var wire 1 * clk $end
$var wire 1 0 rst $end
$var wire 10 6 word_index [9:0] $end
$var wire 1 % mem_resp_ready_i $end
$var wire 1 & mem_req_valid_i $end
$var wire 32 7 mem_addr_i [31:0] $end
$var wire 1 8 addr_valid $end
$var reg 32 9 mem_addr_reg [31:0] $end
$var reg 32 : mem_data_o [31:0] $end
$var reg 1 ' mem_req_ready_o $end
$var reg 1 $ mem_resp_valid_o $end
$var reg 2 ; next_state [1:0] $end
$var reg 2 < state [1:0] $end
$var integer 32 = i [31:0] $end
$upscope $end
$scope module ptw_inst $end
$var wire 1 * clk $end
$var wire 32 > mem_data_i [31:0] $end
$var wire 1 ' mem_req_ready_i $end
$var wire 1 $ mem_resp_valid_i $end
$var wire 1 , ptw_req_valid_i $end
$var wire 1 - ptw_resp_ready_i $end
$var wire 32 ? ptw_vaddr_i [31:0] $end
$var wire 1 0 rst $end
$var wire 10 @ vpn1 [9:0] $end
$var wire 10 A vpn0 [9:0] $end
$var wire 32 B level2_pte_addr [31:0] $end
$var wire 32 C level1_pte_addr [31:0] $end
$var reg 32 D level1_pte [31:0] $end
$var reg 32 E level2_pte [31:0] $end
$var reg 32 F mem_addr_o [31:0] $end
$var reg 1 & mem_req_valid_o $end
$var reg 1 % mem_resp_ready_o $end
$var reg 3 G next_state [2:0] $end
$var reg 32 H ptw_pte_o [31:0] $end
$var reg 1 " ptw_req_ready_o $end
$var reg 1 ! ptw_resp_valid_o $end
$var reg 3 I state [2:0] $end
$var reg 32 J vaddr_reg [31:0] $end
$upscope $end
$scope task integrated_translate $end
$var reg 32 K pte_result [31:0] $end
$var reg 32 L vaddr [31:0] $end
$upscope $end
$scope task reset_system $end
$upscope $end
$scope task verify_detailed_walk $end
$var reg 32 M exp_final_pte [31:0] $end
$var reg 32 N exp_l1_addr [31:0] $end
$var reg 32 O exp_l1_pte [31:0] $end
$var reg 32 P exp_l2_addr [31:0] $end
$var reg 256 Q test_name [255:0] $end
$var reg 32 R vaddr [31:0] $end
$var integer 32 S access_count [31:0] $end
$upscope $end
$scope task verify_translation $end
$var reg 32 T exp_pte [31:0] $end
$var reg 256 U test_name [255:0] $end
$var reg 32 V vaddr [31:0] $end
$upscope $end
$upscope $end
$enddefinitions $end
#0
$dumpvars
bx V
bx U
bx T
bx S
bx R
bx Q
bx P
bx O
bx N
bx M
bx L
bx K
bx J
bx I
bx H
b0 G
bx F
bx E
bx D
bx C
bx B
bx A
bx @
b0 ?
bx >
b10000000000 =
bx <
bx ;
bx :
bx 9
x8
bx 7
bx 6
bx 5
b0 4
b0 3
bx 2
bx 1
10
bx /
b0 .
0-
0,
bx +
0*
bx )
bx (
x'
x&
x%
x$
bx #
x"
x!
$end
#5
b0 6
18
b0 B
b10000000000 C
b0 @
b0 A
b0 ;
b0 <
b0 9
b0 (
b0 :
b0 >
0$
1'
b0 I
b0 E
b0 D
b0 J
0%
b0 )
b0 7
b0 F
0&
b0 #
b0 H
0!
1"
b0 1
b0 5
1*
#10
0*
#15
b1 5
00
1*
#20
0*
#25
b1 G
1,
b0 L
b1101000100101100100000011100000110000101100111011001010010000001010110010100000100111000110001001111010011000000101100010101100101000001001110001100000011110100110000 U
b10000000000000000000000001111 T
b0 V
b1 4
b10 5
1*
#30
0*
#35
0"
b1 I
b1 1
b11 5
1*
#40
0*
#45
b1 ;
b10 G
1&
b10000000000 )
b10000000000 7
b10000000000 F
0,
b100 5
1*
#50
0*
#55
b100000000 6
b10 ;
1%
0&
b10 I
0'
b10000000000 9
b1 <
b101 5
1*
#60
0*
#65
b0 ;
b11 G
b10 <
1$
b100000000001 (
b100000000001 :
b100000000001 >
b110 5
1*
#70
0*
#75
b100000000000 B
0%
b100000000001 D
b11 I
1'
0$
b0 <
b111 5
1*
#80
0*
#85
b1 ;
b100 G
1&
b100000000000 )
b100000000000 7
b100000000000 F
b1000 5
1*
#90
0*
#95
b1000000000 6
b10 ;
1%
0&
b100 I
0'
b100000000000 9
b1 <
b1001 5
1*
#100
0*
#105
b0 ;
b101 G
b10 <
1$
b10000000000000000000000001111 (
b10000000000000000000000001111 :
b10000000000000000000000001111 >
b1010 5
1*
#110
0*
#115
1!
b10000000000000000000000001111 #
b10000000000000000000000001111 H
0%
b10000000000000000000000001111 E
b101 I
1'
0$
b0 <
b1011 5
1*
#120
0*
#125
b0 G
1-
b10000000000000000000000001111 K
b1100 5
1*
#130
0*
#135
1"
0!
b0 I
b1101 5
1*
#140
0*
#145
0-
b1110 5
1*
#150
0*
#155
b1 G
b1000000000000 .
b1000000000000 ?
1,
b1000000000000 L
b1101000100101100100000011100000110000101100111011001010010000001010110010100000100111000110001001111010011000000101100010101100101000001001110001100000011110100110001 U
b10001000000000000000000001111 T
b1000000000000 V
b10 4
b10000000000000000000000001111 /
b1111 5
1*
#160
0*
#165
b100000000100 B
b1 A
b1 I
0"
b1000000000000 J
b10 1
b10000 5
1*
#170
0*
#175
b1 ;
b10 G
1&
b10000000000 )
b10000000000 7
b10000000000 F
0,
b10001 5
1*
#180
0*
#185
b100000000 6
b10 ;
b1 <
0'
b10000000000 9
b10 I
1%
0&
b10010 5
1*
#190
0*
#195
b11 G
b0 ;
1$
b100000000001 (
b100000000001 :
b100000000001 >
b10 <
b10011 5
1*
#200
0*
#205
b0 <
1'
0$
b11 I
0%
b10100 5
1*
#210
0*
#215
b1 ;
b100 G
1&
b100000000100 )
b100000000100 7
b100000000100 F
b10101 5
1*
#220
0*
#225
b1000000001 6
b10 ;
b1 <
0'
b100000000100 9
b100 I
1%
0&
b10110 5
1*
#230
0*
#235
b101 G
b0 ;
1$
b10001000000000000000000001111 (
b10001000000000000000000001111 :
b10001000000000000000000001111 >
b10 <
b10111 5
1*
#240
0*
#245
b0 <
1'
0$
b101 I
1!
b10001000000000000000000001111 #
b10001000000000000000000001111 H
0%
b10001000000000000000000001111 E
b11000 5
1*
#250
0*
#255
b0 G
1-
b10001000000000000000000001111 K
b11001 5
1*
#260
0*
#265
b0 I
1"
0!
b11010 5
1*
#270
0*
#275
0-
b11011 5
1*
#280
0*
#285
b1 G
b10000000000000 .
b10000000000000 ?
1,
b10000000000000 L
b1101000100101100100000011100000110000101100111011001010010000001010110010100000100111000110001001111010011000000101100010101100101000001001110001100000011110100110010 U
b10010000000000000000000000111 T
b10000000000000 V
b11 4
b10001000000000000000000001111 /
b11100 5
1*
#290
0*
#295
b100000001000 B
b10 A
0"
b10000000000000 J
b1 I
b11 1
b11101 5
1*
#300
0*
#305
b1 ;
b10 G
1&
b10000000000 )
b10000000000 7
b10000000000 F
0,
b11110 5
1*
#310
0*
#315
b100000000 6
b10 ;
1%
0&
b10 I
0'
b10000000000 9
b1 <
b11111 5
1*
#320
0*
#325
b0 ;
b11 G
b10 <
1$
b100000000001 (
b100000000001 :
b100000000001 >
b100000 5
1*
#330
0*
#335
0%
b11 I
1'
0$
b0 <
b100001 5
1*
#340
0*
#345
b1 ;
b100 G
1&
b100000001000 )
b100000001000 7
b100000001000 F
b100010 5
1*
#350
0*
#355
b1000000010 6
b10 ;
1%
0&
b100 I
0'
b100000001000 9
b1 <
b100011 5
1*
#360
0*
#365
b0 ;
b101 G
b10 <
1$
b10010000000000000000000000111 (
b10010000000000000000000000111 :
b10010000000000000000000000111 >
b100100 5
1*
#370
0*
#375
1!
b10010000000000000000000000111 #
b10010000000000000000000000111 H
0%
b10010000000000000000000000111 E
b101 I
1'
0$
b0 <
b100101 5
1*
#380
0*
#385
b0 G
1-
b10010000000000000000000000111 K
b100110 5
1*
#390
0*
#395
1"
0!
b0 I
b100111 5
1*
#400
0*
#405
0-
b101000 5
1*
#410
0*
#415
b1 G
b0 .
b0 ?
1,
b0 S
b1000100011001010111010001100001011010010110110001100101011001000010000001110111011000010110110001101011001000000110011001101111011100100010000000110000011110000011000000110000001100000011000000110000001100000011000000110000 Q
b10000000000000000000000001111 M
b100000000000 P
b100000000001 O
b10000000000 N
b0 R
b100 4
b10010000000000000000000000111 /
b101001 5
1*
#420
0*
#425
b100000000000 B
b0 A
b1 I
0"
b0 J
b100 1
b101010 5
1*
#430
0*
#435
b1 ;
b10 G
1&
b10000000000 )
b10000000000 7
b10000000000 F
0,
b101011 5
1*
#440
0*
#445
b100000000 6
b10 ;
b1 <
0'
b10000000000 9
b10 I
1%
0&
b101100 5
1*
#450
0*
#455
b11 G
b0 ;
1$
b100000000001 (
b100000000001 :
b100000000001 >
b10 <
b101101 5
1*
#460
0*
#465
b0 <
1'
0$
b11 I
0%
b101110 5
b1 S
1*
#470
0*
#475
b1 ;
b100 G
1&
b100000000000 )
b100000000000 7
b100000000000 F
b101111 5
1*
#480
0*
#485
b1000000000 6
b10 ;
b1 <
0'
b100000000000 9
b100 I
1%
0&
b110000 5
1*
#490
0*
#495
b101 G
b0 ;
1$
b10000000000000000000000001111 (
b10000000000000000000000001111 :
b10000000000000000000000001111 >
b10 <
b110001 5
1*
#500
0*
#505
b0 G
1-
b10000000000000000000000001111 /
b0 <
1'
0$
b101 I
1!
b10000000000000000000000001111 #
b10000000000000000000000001111 H
0%
b10000000000000000000000001111 E
b110010 5
b10 S
1*
#510
0*
#515
1"
0!
b0 I
b110011 5
1*
#520
0*
#525
b1 G
b1000000000000 .
b1000000000000 ?
1,
b0 S
b1000100011001010111010001100001011010010110110001100101011001000010000001110111011000010110110001101011001000000110011001101111011100100010000000110000011110000011000000110000001100000011000000110001001100000011000000110000 Q
b10001000000000000000000001111 M
b100000000100 P
b1000000000000 R
b101 4
0-
b110100 5
1*
#530
0*
#535
b100000000100 B
b1 A
0"
b1000000000000 J
b1 I
b101 1
b110101 5
1*
#540
0*
#545
b1 ;
b10 G
1&
b10000000000 )
b10000000000 7
b10000000000 F
0,
b110110 5
1*
#550
0*
#555
b100000000 6
b10 ;
1%
0&
b10 I
0'
b10000000000 9
b1 <
b110111 5
1*
#560
0*
#565
b0 ;
b11 G
b10 <
1$
b100000000001 (
b100000000001 :
b100000000001 >
b111000 5
1*
#570
0*
#575
0%
b11 I
1'
0$
b0 <
b111001 5
b1 S
1*
#580
0*
#585
b1 ;
b100 G
1&
b100000000100 )
b100000000100 7
b100000000100 F
b111010 5
1*
#590
0*
#595
b1000000001 6
b10 ;
1%
0&
b100 I
0'
b100000000100 9
b1 <
b111011 5
1*
#600
0*
#605
b0 ;
b101 G
b10 <
1$
b10001000000000000000000001111 (
b10001000000000000000000001111 :
b10001000000000000000000001111 >
b111100 5
1*
#610
0*
#615
b0 G
1-
b10001000000000000000000001111 /
1!
b10001000000000000000000001111 #
b10001000000000000000000001111 H
0%
b10001000000000000000000001111 E
b101 I
1'
0$
b0 <
b111101 5
b10 S
1*
#620
0*
#625
b0 I
1"
0!
b111110 5
1*
#630
0*
#635
b1 G
b10000000000000000000000000000000 .
b10000000000000000000000000000000 ?
1,
b10000000000000000000000000000000 L
b1001001011011100111011001100001011011000110100101100100001000000100110000110001001000000110010101101110011101000111001001111001 U
b0 T
b10000000000000000000000000000000 V
b110 4
0-
b111111 5
1*
#640
0*
#645
b110000000000 C
b1000000000 @
b100000000000 B
b0 A
b1 I
0"
b10000000000000000000000000000000 J
b110 1
b1000000 5
1*
#650
0*
#655
b1 ;
b10 G
1&
b110000000000 )
b110000000000 7
b110000000000 F
0,
b1000001 5
1*
#660
0*
#665
b1100000000 6
b10 ;
b1 <
0'
b110000000000 9
b10 I
1%
0&
b1000010 5
1*
#670
0*
#675
b101 G
b0 ;
1$
b0 (
b0 :
b0 >
b10 <
b1000011 5
1*
#680
0*
#685
b0 B
b0 <
1'
0$
b101 I
1!
b0 #
b0 H
0%
b0 D
b1000100 5
1*
#690
0*
#695
b0 G
1-
b0 K
b1000101 5
1*
#700
0*
#705
b0 I
1"
0!
b1000110 5
1*
#710
0*
#715
0-
b1000111 5
1*
#720
0*
#725
b1 G
b11000000000000 .
b11000000000000 ?
1,
b11000000000000 L
b1001001011011100111011001100001011011000110100101100100001000000100110000110010001000000110010101101110011101000111001001111001 U
b11000000000000 V
b111 4
b0 /
b1001000 5
1*
#730
0*
#735
b10000000000 C
b0 @
b1100 B
b11 A
0"
b11000000000000 J
b1 I
b111 1
b1001001 5
1*
#740
0*
#745
b1 ;
b10 G
1&
b10000000000 )
b10000000000 7
b10000000000 F
0,
b1001010 5
1*
#750
0*
#755
b100000000 6
b10 ;
1%
0&
b10 I
0'
b10000000000 9
b1 <
b1001011 5
1*
#760
0*
#765
b0 ;
b11 G
b10 <
1$
b100000000001 (
b100000000001 :
b100000000001 >
b1001100 5
1*
#770
0*
#775
b100000001100 B
0%
b100000000001 D
b11 I
1'
0$
b0 <
b1001101 5
1*
#780
0*
#785
b1 ;
b100 G
1&
b100000001100 )
b100000001100 7
b100000001100 F
b1001110 5
1*
#790
0*
#795
b1000000011 6
b10 ;
1%
0&
b100 I
0'
b100000001100 9
b1 <
b1001111 5
1*
#800
0*
#805
b0 ;
b101 G
b10 <
1$
b0 (
b0 :
b0 >
b1010000 5
1*
#810
0*
#815
1!
0%
b0 E
b101 I
1'
0$
b0 <
b1010001 5
1*
#820
0*
#825
b0 G
1-
b1010010 5
1*
#830
0*
#835
1"
0!
b0 I
b1010011 5
1*
#840
0*
#845
0-
b1010100 5
1*
#850
0*
#855
b1 G
b0 .
b0 ?
1,
b0 L
b100001001101111011101010110111001100100011000010111001001111001001110100010000001010110010100000100111000110001001111010011000000101100010101100101000001001110001100000011110100110000 U
b10000000000000000000000001111 T
b0 V
b1000 4
b1010101 5
1*
#860
0*
#865
b100000000000 B
b0 A
b1 I
0"
b0 J
b1000 1
b1010110 5
1*
#870
0*
#875
b1 ;
b10 G
1&
b10000000000 )
b10000000000 7
b10000000000 F
0,
b1010111 5
1*
#880
0*
#885
b100000000 6
b10 ;
b1 <
0'
b10000000000 9
b10 I
1%
0&
b1011000 5
1*
#890
0*
#895
b11 G
b0 ;
1$
b100000000001 (
b100000000001 :
b100000000001 >
b10 <
b1011001 5
1*
#900
0*
#905
b0 <
1'
0$
b11 I
0%
b1011010 5
1*
#910
0*
#915
b1 ;
b100 G
1&
b100000000000 )
b100000000000 7
b100000000000 F
b1011011 5
1*
#920
0*
#925
b1000000000 6
b10 ;
b1 <
0'
b100000000000 9
b100 I
1%
0&
b1011100 5
1*
#930
0*
#935
b101 G
b0 ;
1$
b10000000000000000000000001111 (
b10000000000000000000000001111 :
b10000000000000000000000001111 >
b10 <
b1011101 5
1*
#940
0*
#945
b0 <
1'
0$
b101 I
1!
b10000000000000000000000001111 #
b10000000000000000000000001111 H
0%
b10000000000000000000000001111 E
b1011110 5
1*
#950
0*
#955
b0 G
1-
b10000000000000000000000001111 K
b1011111 5
1*
#960
0*
#965
b0 I
1"
0!
b1100000 5
1*
#970
0*
#975
0-
b1100001 5
1*
#980
0*
#985
b1 G
b10000000000000 .
b10000000000000 ?
1,
b10000000000000 L
b100001001101111011101010110111001100100011000010111001001111001001110100010000001010110010100000100111000110001001111010011000000101100010101100101000001001110001100000011110100110010 U
b10010000000000000000000000111 T
b10000000000000 V
b1001 4
b10000000000000000000000001111 /
b1100010 5
1*
#990
0*
#995
b100000001000 B
b10 A
0"
b10000000000000 J
b1 I
b1001 1
b1100011 5
1*
#1000
0*
#1005
b1 ;
b10 G
1&
b10000000000 )
b10000000000 7
b10000000000 F
0,
b1100100 5
1*
#1010
0*
#1015
b100000000 6
b10 ;
1%
0&
b10 I
0'
b10000000000 9
b1 <
b1100101 5
1*
#1020
0*
#1025
b0 ;
b11 G
b10 <
1$
b100000000001 (
b100000000001 :
b100000000001 >
b1100110 5
1*
#1030
0*
#1035
0%
b11 I
1'
0$
b0 <
b1100111 5
1*
#1040
0*
#1045
b1 ;
b100 G
1&
b100000001000 )
b100000001000 7
b100000001000 F
b1101000 5
1*
#1050
0*
#1055
b1000000010 6
b10 ;
1%
0&
b100 I
0'
b100000001000 9
b1 <
b1101001 5
1*
#1060
0*
#1065
b0 ;
b101 G
b10 <
1$
b10010000000000000000000000111 (
b10010000000000000000000000111 :
b10010000000000000000000000111 >
b1101010 5
1*
#1070
0*
#1075
1!
b10010000000000000000000000111 #
b10010000000000000000000000111 H
0%
b10010000000000000000000000111 E
b101 I
1'
0$
b0 <
b1101011 5
1*
#1080
0*
#1085
b0 G
1-
b10010000000000000000000000111 K
b1101100 5
1*
#1090
0*
#1095
1"
0!
b0 I
b1101101 5
1*
#1100
0*
#1105
0-
b1101110 5
1*
#1110
0*
#1115
b1 G
b11000000000000 .
b11000000000000 ?
1,
b11000000000000 L
b100001001101111011101010110111001100100011000010111001001111001001110100010000001010110010100000100111000110001001111010011000000101100010101100101000001001110001100000011110100110011001010000110100101101110011101100110000101101100011010010110010000101001 U
b0 T
b11000000000000 V
b1010 4
b10010000000000000000000000111 /
b1101111 5
1*
#1120
0*
#1125
b100000001100 B
b11 A
b1 I
0"
b11000000000000 J
b1010 1
b1110000 5
1*
#1130
0*
#1135
b1 ;
b10 G
1&
b10000000000 )
b10000000000 7
b10000000000 F
0,
b1110001 5
1*
#1140
0*
#1145
b100000000 6
b10 ;
b1 <
0'
b10000000000 9
b10 I
1%
0&
b1110010 5
1*
#1150
0*
#1155
b11 G
b0 ;
1$
b100000000001 (
b100000000001 :
b100000000001 >
b10 <
b1110011 5
1*
#1160
0*
#1165
b0 <
1'
0$
b11 I
0%
b1110100 5
1*
#1170
0*
#1175
b1 ;
b100 G
1&
b100000001100 )
b100000001100 7
b100000001100 F
b1110101 5
1*
#1180
0*
#1185
b1000000011 6
b10 ;
b1 <
0'
b100000001100 9
b100 I
1%
0&
b1110110 5
1*
#1190
0*
#1195
b101 G
b0 ;
1$
b0 (
b0 :
b0 >
b10 <
b1110111 5
1*
#1200
0*
#1205
b0 <
1'
0$
b101 I
1!
b0 #
b0 H
0%
b0 E
b1111000 5
1*
#1210
0*
#1215
b0 G
1-
b0 K
b1111001 5
1*
#1220
0*
#1225
b0 I
1"
0!
b1111010 5
1*
#1230
0*
#1235
0-
b1111011 5
1*
#1240
0*
#1245
b1 G
b0 .
b0 ?
1,
b0 L
b0 2
b1011 4
b0 /
b1111100 5
1*
#1250
0*
#1255
b100000000000 B
b0 A
0"
b0 J
b1 I
b1011 1
b1111101 5
1*
#1260
0*
#1265
b1 ;
b10 G
1&
b10000000000 )
b10000000000 7
b10000000000 F
0,
b1111110 5
1*
#1270
0*
#1275
b100000000 6
b10 ;
1%
0&
b10 I
0'
b10000000000 9
b1 <
b1111111 5
1*
#1280
0*
#1285
b0 ;
b11 G
b10 <
1$
b100000000001 (
b100000000001 :
b100000000001 >
b10000000 5
1*
#1290
0*
#1295
0%
b11 I
1'
0$
b0 <
b10000001 5
1*
#1300
0*
#1305
b1 ;
b100 G
1&
b100000000000 )
b100000000000 7
b100000000000 F
b10000010 5
1*
#1310
0*
#1315
b1000000000 6
b10 ;
1%
0&
b100 I
0'
b100000000000 9
b1 <
b10000011 5
1*
#1320
0*
#1325
b0 ;
b101 G
b10 <
1$
b10000000000000000000000001111 (
b10000000000000000000000001111 :
b10000000000000000000000001111 >
b10000100 5
1*
#1330
0*
#1335
1!
b10000000000000000000000001111 #
b10000000000000000000000001111 H
0%
b10000000000000000000000001111 E
b101 I
1'
0$
b0 <
b10000101 5
1*
#1340
0*
#1345
b0 G
1-
b10000000000000000000000001111 K
b10000110 5
1*
#1350
0*
#1355
1"
0!
b0 I
b10000111 5
1*
#1360
0*
#1365
0-
b10001000 5
1*
#1370
0*
#1375
b1 G
b1000000000000 .
b1000000000000 ?
1,
b1000000000000 L
b1 2
b1100 4
b10000000000000000000000001111 /
b10001001 5
1*
#1380
0*
#1385
b100000000100 B
b1 A
b1 I
0"
b1000000000000 J
b1100 1
b10001010 5
1*
#1390
0*
#1395
b1 ;
b10 G
1&
b10000000000 )
b10000000000 7
b10000000000 F
0,
b10001011 5
1*
#1400
0*
#1405
b100000000 6
b10 ;
b1 <
0'
b10000000000 9
b10 I
1%
0&
b10001100 5
1*
#1410
0*
#1415
b11 G
b0 ;
1$
b100000000001 (
b100000000001 :
b100000000001 >
b10 <
b10001101 5
1*
#1420
0*
#1425
b0 <
1'
0$
b11 I
0%
b10001110 5
1*
#1430
0*
#1435
b1 ;
b100 G
1&
b100000000100 )
b100000000100 7
b100000000100 F
b10001111 5
1*
#1440
0*
#1445
b1000000001 6
b10 ;
b1 <
0'
b100000000100 9
b100 I
1%
0&
b10010000 5
1*
#1450
0*
#1455
b101 G
b0 ;
1$
b10001000000000000000000001111 (
b10001000000000000000000001111 :
b10001000000000000000000001111 >
b10 <
b10010001 5
1*
#1460
0*
#1465
b0 <
1'
0$
b101 I
1!
b10001000000000000000000001111 #
b10001000000000000000000001111 H
0%
b10001000000000000000000001111 E
b10010010 5
1*
#1470
0*
#1475
b0 G
1-
b10001000000000000000000001111 K
b10010011 5
1*
#1480
0*
#1485
b0 I
1"
0!
b10010100 5
1*
#1490
0*
#1495
0-
b10010101 5
1*
#1500
0*
#1505
b1 G
b10000000000000 .
b10000000000000 ?
1,
b10000000000000 L
b10 2
b1101 4
b10001000000000000000000001111 /
b10010110 5
1*
#1510
0*
#1515
b100000001000 B
b10 A
0"
b10000000000000 J
b1 I
b1101 1
b10010111 5
1*
#1520
0*
#1525
b1 ;
b10 G
1&
b10000000000 )
b10000000000 7
b10000000000 F
0,
b10011000 5
1*
#1530
0*
#1535
b100000000 6
b10 ;
1%
0&
b10 I
0'
b10000000000 9
b1 <
b10011001 5
1*
#1540
0*
#1545
b0 ;
b11 G
b10 <
1$
b100000000001 (
b100000000001 :
b100000000001 >
b10011010 5
1*
#1550
0*
#1555
0%
b11 I
1'
0$
b0 <
b10011011 5
1*
#1560
0*
#1565
b1 ;
b100 G
1&
b100000001000 )
b100000001000 7
b100000001000 F
b10011100 5
1*
#1570
0*
#1575
b1000000010 6
b10 ;
1%
0&
b100 I
0'
b100000001000 9
b1 <
b10011101 5
1*
#1580
0*
#1585
b0 ;
b101 G
b10 <
1$
b10010000000000000000000000111 (
b10010000000000000000000000111 :
b10010000000000000000000000111 >
b10011110 5
1*
#1590
0*
#1595
1!
b10010000000000000000000000111 #
b10010000000000000000000000111 H
0%
b10010000000000000000000000111 E
b101 I
1'
0$
b0 <
b10011111 5
1*
#1600
0*
#1605
b0 G
1-
b10010000000000000000000000111 K
b10100000 5
1*
#1610
0*
#1615
1"
0!
b0 I
b10100001 5
1*
#1620
0*
#1625
0-
b10100010 5
1*
#1630
0*
#1635
b1 G
b10000000000000000000000000000000 .
b10000000000000000000000000000000 ?
1,
b10000000000000000000000000000000 L
b11 2
b1110 4
b10010000000000000000000000111 /
b10100011 5
1*
#1640
0*
#1645
b110000000000 C
b1000000000 @
b100000000000 B
b0 A
b1 I
0"
b10000000000000000000000000000000 J
b1110 1
b10100100 5
1*
#1650
0*
#1655
b1 ;
b10 G
1&
b110000000000 )
b110000000000 7
b110000000000 F
0,
b10100101 5
1*
#1660
0*
#1665
b1100000000 6
b10 ;
b1 <
0'
b110000000000 9
b10 I
1%
0&
b10100110 5
1*
#1670
0*
#1675
b101 G
b0 ;
1$
b0 (
b0 :
b0 >
b10 <
b10100111 5
1*
#1680
0*
#1685
b0 B
b0 <
1'
0$
b101 I
1!
b0 #
b0 H
0%
b0 D
b10101000 5
1*
#1690
0*
#1695
b0 G
1-
b0 K
b10101001 5
1*
#1700
0*
#1705
b0 I
1"
0!
b10101010 5
1*
#1710
0*
#1715
0-
b10101011 5
1*
#1720
0*
#1725
b1 G
b0 .
b0 ?
1,
b0 L
b0 2
b1111 4
b0 /
b10101100 5
1*
#1730
0*
#1735
b10000000000 C
b0 @
0"
b0 J
b1 I
b1111 1
b10101101 5
1*
#1740
0*
#1745
b1 ;
b10 G
1&
b10000000000 )
b10000000000 7
b10000000000 F
0,
b10101110 5
1*
#1750
0*
#1755
b100000000 6
b10 ;
1%
0&
b10 I
0'
b10000000000 9
b1 <
b10101111 5
1*
#1760
0*
#1765
b0 ;
b11 G
b10 <
1$
b100000000001 (
b100000000001 :
b100000000001 >
b10110000 5
1*
#1770
0*
#1775
b100000000000 B
0%
b100000000001 D
b11 I
1'
0$
b0 <
b10110001 5
1*
#1780
0*
#1785
b1 ;
b100 G
1&
b100000000000 )
b100000000000 7
b100000000000 F
b10110010 5
1*
#1790
0*
#1795
b1000000000 6
b10 ;
1%
0&
b100 I
0'
b100000000000 9
b1 <
b10110011 5
1*
#1800
0*
#1805
b0 ;
b101 G
b10 <
1$
b10000000000000000000000001111 (
b10000000000000000000000001111 :
b10000000000000000000000001111 >
b10110100 5
1*
#1810
0*
#1815
1!
b10000000000000000000000001111 #
b10000000000000000000000001111 H
0%
b10000000000000000000000001111 E
b101 I
1'
0$
b0 <
b10110101 5
1*
#1820
0*
#1825
b0 G
1-
b10000000000000000000000001111 K
b10110110 5
1*
#1830
0*
#1835
1"
0!
b0 I
b10110111 5
1*
#1840
0*
#1845
0-
b10111000 5
1*
#1850
0*
#1855
b1 G
b1000000000000 .
b1000000000000 ?
1,
b1000000000000 L
b1 2
b10000 4
b10000000000000000000000001111 +
b10000000000000000000000001111 /
b10111001 5
1*
#1860
0*
#1865
b100000000100 B
b1 A
b1 I
0"
b1000000000000 J
b10000 1
b10111010 5
1*
#1870
0*
#1875
b1 ;
b10 G
1&
b10000000000 )
b10000000000 7
b10000000000 F
0,
b10111011 5
1*
#1880
0*
#1885
b100000000 6
b10 ;
b1 <
0'
b10000000000 9
b10 I
1%
0&
b10111100 5
1*
#1890
0*
#1895
b11 G
b0 ;
1$
b100000000001 (
b100000000001 :
b100000000001 >
b10 <
b10111101 5
1*
#1900
0*
#1905
b0 <
1'
0$
b11 I
0%
b10111110 5
1*
#1910
0*
#1915
b1 ;
b100 G
1&
b100000000100 )
b100000000100 7
b100000000100 F
b10111111 5
1*
#1920
0*
#1925
b1000000001 6
b10 ;
b1 <
0'
b100000000100 9
b100 I
1%
0&
b11000000 5
1*
#1930
0*
#1935
b101 G
b0 ;
1$
b10001000000000000000000001111 (
b10001000000000000000000001111 :
b10001000000000000000000001111 >
b10 <
b11000001 5
1*
#1940
0*
#1945
b0 <
1'
0$
b101 I
1!
b10001000000000000000000001111 #
b10001000000000000000000001111 H
0%
b10001000000000000000000001111 E
b11000010 5
1*
#1950
0*
#1955
b0 G
1-
b10001000000000000000000001111 K
b11000011 5
1*
#1960
0*
#1965
b0 I
1"
0!
b11000100 5
1*
#1970
0*
#1975
0-
b11000101 5
1*
#1980
0*
#1985
b1 G
b10000000000000 .
b10000000000000 ?
1,
b10000000000000 L
b10 2
b10001 4
b10001000000000000000000001111 +
b10001000000000000000000001111 /
b11000110 5
1*
#1990
0*
#1995
b100000001000 B
b10 A
0"
b10000000000000 J
b1 I
b10001 1
b11000111 5
1*
#2000
0*
#2005
b1 ;
b10 G
1&
b10000000000 )
b10000000000 7
b10000000000 F
0,
b11001000 5
1*
#2010
0*
#2015
b100000000 6
b10 ;
1%
0&
b10 I
0'
b10000000000 9
b1 <
b11001001 5
1*
#2020
0*
#2025
b0 ;
b11 G
b10 <
1$
b100000000001 (
b100000000001 :
b100000000001 >
b11001010 5
1*
#2030
0*
#2035
0%
b11 I
1'
0$
b0 <
b11001011 5
1*
#2040
0*
#2045
b1 ;
b100 G
1&
b100000001000 )
b100000001000 7
b100000001000 F
b11001100 5
1*
#2050
0*
#2055
b1000000010 6
b10 ;
1%
0&
b100 I
0'
b100000001000 9
b1 <
b11001101 5
1*
#2060
0*
#2065
b0 ;
b101 G
b10 <
1$
b10010000000000000000000000111 (
b10010000000000000000000000111 :
b10010000000000000000000000111 >
b11001110 5
1*
#2070
0*
#2075
1!
b10010000000000000000000000111 #
b10010000000000000000000000111 H
0%
b10010000000000000000000000111 E
b101 I
1'
0$
b0 <
b11001111 5
1*
#2080
0*
#2085
b0 G
1-
b10010000000000000000000000111 K
b11010000 5
1*
#2090
0*
#2095
1"
0!
b0 I
b11010001 5
1*
#2100
0*
#2105
0-
b11010010 5
1*
#2110
0*
#2115
b1 G
b10000000000000000000000000000000 .
b10000000000000000000000000000000 ?
1,
b10000000000000000000000000000000 L
b11 2
b10010 4
b10010000000000000000000000111 +
b10010000000000000000000000111 /
b11010011 5
1*
#2120
0*
#2125
b110000000000 C
b1000000000 @
b100000000000 B
b0 A
b1 I
0"
b10000000000000000000000000000000 J
b10010 1
b11010100 5
1*
#2130
0*
#2135
b1 ;
b10 G
1&
b110000000000 )
b110000000000 7
b110000000000 F
0,
b11010101 5
1*
#2140
0*
#2145
b1100000000 6
b10 ;
b1 <
0'
b110000000000 9
b10 I
1%
0&
b11010110 5
1*
#2150
0*
#2155
b101 G
b0 ;
1$
b0 (
b0 :
b0 >
b10 <
b11010111 5
1*
