AE/tlb/verilog/waves/tlb_integration.vcd
$date
	Thu Sep  4 00:08:37 2025
$end
$version
	Icarus Verilog
$end
$timescale
	1s
$end
$scope module test_tlb_integration $end
$var wire 1 ! resp_valid_o $end
$var wire 1 " req_ready_o $end
$var wire 32 # ptw_vaddr_o [31:0] $end
$var wire 1 $ ptw_resp_ready_o $end
$var wire 1 % ptw_req_valid_o $end
$var wire 32 & paddr_o [31:0] $end
$var wire 1 ' hit_o $end
$var wire 1 ( fault_o $end
$var reg 1 ) access_type_i $end
$var reg 1 * clk $end
$var reg 32 + ptw_pte_i [31:0] $end
$var reg 1 , ptw_req_ready_i $end
$var reg 1 - ptw_resp_valid_i $end
$var reg 1 . req_valid_i $end
$var reg 1 / resp_ready_i $end
$var reg 1 0 rst $end
$var reg 1 1 task_fault_result $end
$var reg 1 2 task_hit_result $end
$var reg 32 3 task_paddr_result [31:0] $end
$var reg 32 4 test_vaddr [31:0] $end
$var reg 32 5 vaddr_i [31:0] $end
$var integer 32 6 fault_count [31:0] $end
$var integer 32 7 hit_count [31:0] $end
$var integer 32 8 i [31:0] $end
$var integer 32 9 miss_count [31:0] $end
$var integer 32 : test_failed [31:0] $end
$var integer 32 ; test_passed [31:0] $end
$var integer 32 < total_requests [31:0] $end
$scope module dut $end
$var wire 1 ) access_type_i $end
$var wire 1 * clk $end
$var wire 32 = ptw_pte_i [31:0] $end
$var wire 1 , ptw_req_ready_i $end
$var wire 1 - ptw_resp_valid_i $end
$var wire 1 . req_valid_i $end
$var wire 1 / resp_ready_i $end
$var wire 1 0 rst $end
$var wire 32 > vaddr_i [31:0] $end
$var wire 20 ? vpn [19:0] $end
$var wire 1 @ update_en $end
$var wire 3 A state [2:0] $end
$var wire 4 B set_index [3:0] $end
$var wire 1 ! resp_valid_o $end
$var wire 1 " req_ready_o $end
$var wire 2 C replace_way [1:0] $end
$var wire 1 $ ptw_resp_ready_o $end
$var wire 1 % ptw_req_valid_o $end
$var wire 1 D perm_fault $end
$var wire 12 E page_offset [11:0] $end
$var wire 3 F next_state [2:0] $end
$var wire 4 G max_lru_value [3:0] $end
$var wire 1 H lru_update_en $end
$var wire 1 I lookup_en $end
$var wire 2 J hit_way [1:0] $end
$var wire 20 K hit_ppn [19:0] $end
$var wire 2 L hit_perms [1:0] $end
$var wire 1 M hit $end
$var reg 1 N access_type_reg $end
$var reg 1 ( fault_o $end
$var reg 1 ' hit_o $end
$var reg 32 O paddr_o [31:0] $end
$var reg 32 P pte_reg [31:0] $end
$var reg 32 Q ptw_vaddr_o [31:0] $end
$var reg 32 R vaddr_reg [31:0] $end
$var reg 1 S wr_en $end
$var reg 4 T wr_lru_count [3:0] $end
$var reg 2 U wr_perms [1:0] $end
$var reg 20 V wr_ppn [19:0] $end
$var reg 1 W wr_valid $end
$var reg 20 X wr_vpn [19:0] $end
$var reg 2 Y wr_way [1:0] $end
$scope module controller $end
$var wire 1 * clk $end
$var wire 1 , ptw_req_ready_i $end
$var wire 1 - ptw_resp_valid_i $end
$var wire 1 . req_valid_i $end
$var wire 1 / resp_ready_i $end
$var wire 1 0 rst $end
$var wire 1 D perm_fault $end
$var wire 1 M hit $end
$var reg 1 I lookup_en $end
$var reg 1 H lru_update_en $end
$var reg 3 Z next_state [2:0] $end
$var reg 1 % ptw_req_valid_o $end
$var reg 1 $ ptw_resp_ready_o $end
$var reg 1 " req_ready_o $end
$var reg 1 ! resp_valid_o $end
$var reg 3 [ state [2:0] $end
$var reg 1 @ update_en $end
$upscope $end
$scope module lookup $end
$var wire 1 N access_type $end
$var wire 1 D perm_fault $end
$var wire 32 \ vaddr [31:0] $end
$var wire 20 ] vpn [19:0] $end
$var wire 4 ^ set_index [3:0] $end
$var wire 12 _ page_offset [11:0] $end
$var wire 4 ` match [3:0] $end
$var wire 2 a hit_way [1:0] $end
$var wire 20 b hit_ppn [19:0] $end
$var wire 2 c hit_perms [1:0] $end
$var wire 1 M hit $end
$scope begin match_gen[0] $end
$upscope $end
$scope begin match_gen[1] $end
$upscope $end
$scope begin match_gen[2] $end
$upscope $end
$scope begin match_gen[3] $end
$upscope $end
$upscope $end
$scope module lru $end
$var reg 4 d max_lru_value [3:0] $end
$var reg 4 e min_lru_value [3:0] $end
$var reg 2 f replace_way [1:0] $end
$var integer 32 g i [31:0] $end
$upscope $end
$scope module storage $end
$var wire 1 * clk $end
$var wire 4 h lru_set_index [3:0] $end
$var wire 1 i lru_update_en $end
$var wire 4 j lru_value [3:0] $end
$var wire 2 k lru_way [1:0] $end
$var wire 4 l rd_set_index [3:0] $end
$var wire 1 0 rst $end
$var wire 1 S wr_en $end
$var wire 4 m wr_lru_count [3:0] $end
$var wire 2 n wr_perms [1:0] $end
$var wire 20 o wr_ppn [19:0] $end
$var wire 4 p wr_set_index [3:0] $end
$var wire 1 W wr_valid $end
$var wire 20 q wr_vpn [19:0] $end
$var wire 2 r wr_way [1:0] $end
$var integer 32 s r [31:0] $end
$scope begin $unm_blk_39 $end
$var integer 32 t s [31:0] $end
$var integer 32 u w [31:0] $end
$upscope $end
$scope begin $unm_blk_45 $end
$var integer 32 v s [31:0] $end
$var integer 32 w w [31:0] $end
$upscope $end
$upscope $end
$upscope $end
$scope task ptw_response $end
$upscope $end
$scope task reset_dut $end
$upscope $end
$scope task tlb_request $end
$var reg 1 x access_type $end
$var reg 1 y fault_result $end
$var reg 1 z hit_result $end
$var reg 32 { paddr_result [31:0] $end
$var reg 32 | vaddr [31:0] $end
$upscope $end
$scope task tlb_request_with_ptw $end
$var reg 1 } access_type $end
$var reg 1 ~ fault_result $end
$var reg 1 !" hit_result $end
$var reg 32 "" paddr_result [31:0] $end
$var reg 32 #" pte [31:0] $end
$var reg 32 $" vaddr [31:0] $end
$upscope $end
$scope task verify_result $end
$var reg 1 %" exp_fault $end
$var reg 1 &" exp_hit $end
$var reg 32 '" exp_paddr [31:0] $end
$var reg 1 (" got_fault $end
$var reg 1 )" got_hit $end
$var reg 32 *" got_paddr [31:0] $end
$var reg 256 +" test_name [255:0] $end
$upscope $end
$upscope $end
$enddefinitions $end
#0
$dumpvars
bx +"
bx *"
x)"
x("
bx '"
x&"
x%"
bx $"
bx #"
bx ""
x!"
x~
x}
bx |
bx {
xz
xy
xx
bx w
bx v
b100 u
b10000 t
b100 s
bx r
bx q
bx p
bx o
bx n
bx m
bx l
bx k
bx j
xi
bx h
bx g
bx f
bx e
bx d
bx c
bx b
bx a
bx `
bx _
bx ^
bx ]
bx \
bx [
b0 Z
bx Y
bx X
xW
bx V
bx U
bx T
xS
bx R
bx Q
bx P
bx O
xN
xM
bx L
bx K
bx J
xI
xH
bx G
b0 F
bx E
xD
bx C
bx B
bx A
x@
bx ?
bx >
b0 =
b0 <
b0 ;
b0 :
b0 9
bx 8
b0 7
b0 6
bx 5
bx 4
bx 3
x2
x1
10
0/
0.
0-
0,
b0 +
0*
x)
x(
x'
bx &
x%
x$
bx #
x"
x!
$end
#5
1D
b1 j
b0 J
b0 a
b0 k
b0 K
b0 b
b0 L
b0 c
0M
b100 g
b0 G
b0 d
b0 e
b0 C
b0 f
b0 `
0i
b100 s
b0 ?
b0 ]
b0 B
b0 ^
b0 h
b0 l
b0 p
b0 E
b0 _
0H
0@
0I
0$
0%
0!
1"
b0 A
b0 [
0S
0(
0'
b0 &
b0 O
b0 #
b0 Q
b0 P
0N
b0 R
b0 \
b100 w
b10000 v
1*
#10
0*
#15
b100 w
b10000 v
00
1*
#20
0*
#25
0x
b10010001101000101011001111000 |
b1 ;
1*
#30
0*
#35
b100 s
b10010001101000101 ?
b10010001101000101 ]
b101 B
b101 ^
b101 h
b101 l
b101 p
b11001111000 E
b11001111000 _
b10010001101000101011001111000 R
b10010001101000101011001111000 \
b1 F
b1 Z
0)
b10010001101000101011001111000 5
b10010001101000101011001111000 >
1.
1*
#40
0*
#45
1I
0"
b1 A
b1 [
b10 F
b10 Z
0.
1*
#50
0*
#55
b10010001101000101011001111000 #
b10010001101000101011001111000 Q
0I
1%
b10 A
b10 [
1*
#60
0*
#65
b11 F
b11 Z
1,
1*
#70
0*
#75
1$
0%
b11 A
b11 [
b11 F
b11 Z
0,
1*
#80
0*
#85
b10101011110011011110000000000011 P
b100 F
b100 Z
b10101011110011011110000000000011 +
b10101011110011011110000000000011 =
1-
1*
#90
0*
#95
1H
1@
0$
b100 A
b100 [
b101 F
b101 Z
0-
1*
#100
0*
#105
b0 F
b0 Z
1/
0y
0z
b10101011110011011110011001111000 {
0H
0@
1!
b101 A
b101 [
b10101011110011011110011001111000 &
b10101011110011011110011001111000 O
b0 T
b0 m
b11 U
b11 n
b10101011110011011110 V
b10101011110011011110 o
b10010001101000101 X
b10010001101000101 q
1W
b0 Y
b0 r
1S
1*
#110
0*
#115
0D
b10101011110011011110 K
b10101011110011011110 b
b11 L
b11 c
1M
b1 `
b100 s
0S
0!
1"
b0 A
b0 [
b0 F
b0 Z
0/
1*
#120
0*
#125
b10010001101000101100110011001 |
b1 9
b1 <
b10 ;
b10001100110100101110010011100110111010000100000011011010110100101110011011100110010000001100001011011100110010000100000011101010111000001100100011000010111010001100101 +"
0%"
0&"
b10101011110011011110011001111000 '"
0("
0)"
b10101011110011011110011001111000 *"
01
02
b10101011110011011110011001111000 3
1*
#130
0*
#135
b100110011001 E
b100110011001 _
b10010001101000101100110011001 R
b10010001101000101100110011001 \
b1 F
b1 Z
b10010001101000101100110011001 5
b10010001101000101100110011001 >
1.
1*
#140
0*
#145
1I
0"
b1 A
b1 [
b101 F
b101 Z
0.
1*
#150
0*
#155
1i
b0 F
b0 Z
1/
1z
b10101011110011011110100110011001 {
1'
b10101011110011011110100110011001 &
b10101011110011011110100110011001 O
1H
0I
1!
b101 A
b101 [
1*
#160
0*
#165
0i
b1 C
b1 f
b100 g
b1 G
b1 d
b0 e
b10 j
b100 s
0H
0!
1"
b0 A
b0 [
b0 F
b0 Z
0/
1*
#170
0*
#175
b10011001100110011001000000000000 |
b1 7
b10 <
b11 ;
b1001000011010010111010000100000011011110110111000100000011000110110000101100011011010000110010101100100001000000110010101101110011101000111001001111001 +"
1&"
b10101011110011011110100110011001 '"
1)"
b10101011110011011110100110011001 *"
12
b10101011110011011110100110011001 3
1*
#180
0*
#185
1D
b100 g
b0 G
b0 d
b0 C
b0 f
b0 L
b0 c
b0 K
b0 b
0M
b0 `
b1 j
b100 s
b10011001100110011001 ?
b10011001100110011001 ]
b1001 B
b1001 ^
b1001 h
b1001 l
b1001 p
b0 E
b0 _
b10011001100110011001000000000000 R
b10011001100110011001000000000000 \
b1 F
b1 Z
b10011001100110011001000000000000 5
b10011001100110011001000000000000 >
1.
1*
#190
0*
#195
1I
0"
b1 A
b1 [
b10 F
b10 Z
0.
1*
#200
0*
#205
0I
1%
b10 A
b10 [
b10011001100110011001000000000000 #
b10011001100110011001000000000000 Q
1*
#210
0*
#215
b11 F
b11 Z
1,
1*
#220
0*
#225
1$
0%
b11 A
b11 [
b11 F
b11 Z
0,
1*
#230
0*
#235
b10001000100010001000000000011 P
b100 F
b100 Z
b10001000100010001000000000011 +
b10001000100010001000000000011 =
1-
1*
#240
0*
#245
1H
1@
0$
b100 A
b100 [
b101 F
b101 Z
0-
1*
#250
0*
#255
b0 F
b0 Z
1/
0z
b10001000100010001000000000000 {
0'
b10001000100010001000000000000 &
b10001000100010001000000000000 O
b10001000100010001 V
b10001000100010001 o
b10011001100110011001 X
b10011001100110011001 q
1S
0H
0@
1!
b101 A
b101 [
1*
#260
0*
#265
0D
b10001000100010001 K
b10001000100010001 b
b11 L
b11 c
1M
b1 `
b100 s
0!
1"
b0 A
b0 [
0S
b0 F
b0 Z
0/
1*
#270
0*
#275
b1010101010101010101000100100011 |
b10 9
b11 <
b100 ;
b10001000110100101100110011001100110010101110010011001010110111001110100001000000101011001010000010011100010000001101101011010010111001101110011 +"
0&"
b10001000100010001000000000000 '"
0)"
b10001000100010001000000000000 *"
02
b10001000100010001000000000000 3
1*
#280
0*
#285
1D
b0 L
b0 c
b1 C
b1 f
b100 g
b1 G
b1 d
b0 e
b0 K
b0 b
0M
b0 `
b10 j
b100 s
b1010101010101010101 ?
b1010101010101010101 ]
b101 B
b101 ^
b101 h
b101 l
b101 p
b100100011 E
b100100011 _
b1010101010101010101000100100011 R
b1010101010101010101000100100011 \
b1 F
b1 Z
b1010101010101010101000100100011 5
b1010101010101010101000100100011 >
1.
1*
#290
0*
#295
1I
0"
b1 A
b1 [
b10 F
b10 Z
0.
1*
#300
0*
#305
0I
1%
b10 A
b10 [
b1010101010101010101000100100011 #
b1010101010101010101000100100011 Q
1*
#310
0*
#315
b11 F
b11 Z
1,
1*
#320
0*
#325
1$
0%
b11 A
b11 [
b11 F
b11 Z
0,
1*
#330
0*
#335
b1110111011101110111000000000001 P
b100 F
b100 Z
b1110111011101110111000000000001 +
b1110111011101110111000000000001 =
1-
1*
#340
0*
#345
1H
1@
0$
b100 A
b100 [
b101 F
b101 Z
0-
1*
#350
0*
#355
b0 F
b0 Z
1/
b1110111011101110111000100100011 {
b1110111011101110111000100100011 &
b1110111011101110111000100100011 O
b1 T
b1 m
b1 U
b1 n
b1110111011101110111 V
b1110111011101110111 o
b1010101010101010101 X
b1010101010101010101 q
b1 Y
b1 r
1S
0H
0@
1!
b101 A
b101 [
1*
#360
0*
#365
0D
b1 J
b1 a
b1 k
b1110111011101110111 K
b1110111011101110111 b
b1 L
b1 c
b100 g
b0 e
b10 C
b10 f
1M
b10 `
b100 s
0!
1"
b0 A
b0 [
0S
b0 F
b0 Z
0/
1*
#370
0*
#375
1x
b1010101010101010101010001010110 |
b11 9
b100 <
b101 ;
b10100100110010101100001011001000010000001100110011100100110111101101101001000000111001001100101011000010110010000101101011011110110111001101100011110010010000001110000011000010110011101100101 +"
b1110111011101110111000100100011 '"
b1110111011101110111000100100011 *"
b1110111011101110111000100100011 3
1*
#380
0*
#385
1D
b10001010110 E
b10001010110 _
1N
b1010101010101010101010001010110 R
b1010101010101010101010001010110 \
b1 F
b1 Z
1)
b1010101010101010101010001010110 5
b1010101010101010101010001010110 >
1.
1*
#390
0*
#395
1I
0"
b1 A
b1 [
b101 F
b101 Z
0.
1*
#400
0*
#405
b0 F
b0 Z
1/
1y
1z
b0 {
0I
1!
b101 A
b101 [
1(
1'
b0 &
b0 O
1*
#410
0*
#415
0!
1"
b0 A
b0 [
b0 F
b0 Z
0/
1*
#420
0*
#425
0x
b10001000100010001000000000000011 |
b10001000100010001000000000000011 4
b1 6
b10 7
b101 <
b110 ;
b101011101110010011010010111010001100101001000000111010001101111001000000111001001100101011000010110010000101101011011110110111001101100011110010010000001110000011000010110011101100101 +"
1%"
1&"
b0 '"
1("
1)"
b0 *"
11
12
b0 3
1*
#430
0*
#435
b0 J
b0 a
b0 k
b0 L
b0 c
b0 K
b0 b
1D
b100 g
b0 G
b0 d
b0 C
b0 f
0M
b0 `
b1 j
b100 s
b10001000100010001000 ?
b10001000100010001000 ]
b1000 B
b1000 ^
b1000 h
b1000 l
b1000 p
b11 E
b11 _
0N
b10001000100010001000000000000011 R
b10001000100010001000000000000011 \
b1 F
b1 Z
0)
b10001000100010001000000000000011 5
b10001000100010001000000000000011 >
1.
1*
#440
0*
#445
1I
0"
b1 A
b1 [
b10 F
b10 Z
0.
1*
#450
0*
#455
b10001000100010001000000000000011 #
b10001000100010001000000000000011 Q
0I
1%
b10 A
b10 [
1*
#460
0*
#465
b11 F
b11 Z
1,
1*
#470
0*
#475
1$
0%
b11 A
b11 [
b11 F
b11 Z
0,
1*
#480
0*
#485
b10011001100110011001000000000011 P
b100 F
b100 Z
b10011001100110011001000000000011 +
b10011001100110011001000000000011 =
1-
1*
#490
0*
#495
1H
1@
0$
b100 A
b100 [
b101 F
b101 Z
0-
1*
#500
0*
#505
b0 F
b0 Z
1/
0y
0z
b10011001100110011001000000000011 {
0H
0@
1!
b101 A
b101 [
0'
0(
b10011001100110011001000000000011 &
b10011001100110011001000000000011 O
b0 T
b0 m
b11 U
b11 n
b10011001100110011001 V
b10011001100110011001 o
b10001000100010001000 X
b10001000100010001000 q
b0 Y
b0 r
1S
1*
#510
0*
#515
0D
b10011001100110011001 K
b10011001100110011001 b
b11 L
b11 c
1M
b1 `
b100 s
0S
0!
1"
b0 A
b0 [
b0 F
b0 Z
0/
1*
#520
0*
#525
b10001000100010001000101010111100 |
b100 9
b110 <
b111 ;
b1001100010100100101010100100000011100100110010101110000011011000110000101100011011001010110110101100101011011100111010000100000011101000111001001101001011001110110011101100101011100100110010101100100 +"
0%"
0&"
b10011001100110011001000000000011 '"
0("
0)"
b10011001100110011001000000000011 *"
01
02
b10011001100110011001000000000011 3
1*
#530
0*
#535
b101010111100 E
b101010111100 _
b10001000100010001000101010111100 R
b10001000100010001000101010111100 \
b1 F
b1 Z
b10001000100010001000101010111100 5
b10001000100010001000101010111100 >
1.
1*
#540
0*
#545
1I
0"
b1 A
b1 [
b101 F
b101 Z
0.
1*
#550
0*
#555
1i
b0 F
b0 Z
1/
1z
b10011001100110011001101010111100 {
1'
b10011001100110011001101010111100 &
b10011001100110011001101010111100 O
1H
0I
1!
b101 A
b101 [
1*
#560
0*
#565
0i
b1 C
b1 f
b100 g
b1 G
b1 d
b0 e
b10 j
b100 s
0H
0!
1"
b0 A
b0 [
b0 F
b0 Z
0/
1*
#570
0*
#575
1x
b11011110101011011011111011101111 |
b11 7
b111 <
b1000 ;
b1001110011001010111011100100000011001010110111001110100011100100111100100100000011000010110011001110100011001010111001000100000010011000101001001010101001000000111001001100101011100000110110001100001011000110110010101101101011001010110111001110100 +"
1&"
b10011001100110011001101010111100 '"
1)"
b10011001100110011001101010111100 *"
12
b10011001100110011001101010111100 3
1*
#580
0*
#585
1D
b100 g
b0 G
b0 d
b0 C
b0 f
b0 L
b0 c
b0 K
b0 b
0M
b0 `
b1 j
b100 s
b11011110101011011011 ?
b11011110101011011011 ]
b1011 B
b1011 ^
b1011 h
b1011 l
b1011 p
b111011101111 E
b111011101111 _
1N
b11011110101011011011111011101111 R
b11011110101011011011111011101111 \
b1 F
b1 Z
1)
b11011110101011011011111011101111 5
b11011110101011011011111011101111 >
1.
1*
#590
0*
#595
1I
0"
b1 A
b1 [
b10 F
b10 Z
0.
1*
#600
0*
#605
0I
1%
b10 A
b10 [
b11011110101011011011111011101111 #
b11011110101011011011111011101111 Q
1*
#610
0*
#615
b11 F
b11 Z
1,
1*
#620
0*
#625
1$
0%
b11 A
b11 [
b11 F
b11 Z
0,
1*
#630
0*
#635
b0 P
b100 F
b100 Z
b0 +
b0 =
1-
1*
#640
0*
#645
1H
1@
0$
b100 A
b100 [
b101 F
b101 Z
0-
1*
#650
0*
#655
b0 F
b0 Z
1/
1y
0z
b0 {
0'
1(
b0 &
b0 O
0H
0@
1!
b101 A
b101 [
1*
#660
0*
#665
0!
1"
b0 A
b0 [
b0 F
b0 Z
0/
1*
#670
0*
#675
b10010000101010011010100100100 |
b10010000101010011000000000011 +
b10010000101010011000000000011 =
b10010000101010011010100100100 4
b0 8
b10 6
b101 9
b1000 <
b1001 ;
b10100000101010001010111001000000110011001100001011101010110110001110100001000000111000001110010011011110111000001100001011001110110000101110100011010010110111101101110 +"
1%"
0&"
b0 '"
1("
0)"
b0 *"
11
02
b0 3
1*
#680
0*
#685
b100 s
b10010000101010011 ?
b10010000101010011 ]
b11 B
b11 ^
b11 h
b11 l
b11 p
b10100100100 E
b10100100100 _
b10010000101010011010100100100 R
b10010000101010011010100100100 \
b1 F
b1 Z
b10010000101010011010100100100 5
b10010000101010011010100100100 >
1.
1*
#690
0*
#695
1I
0"
b1 A
b1 [
b10 F
b10 Z
0.
1*
#700
0*
#705
0I
1%
b10 A
b10 [
b10010000101010011010100100100 #
b10010000101010011010100100100 Q
1*
#710
0*
#715
b11 F
b11 Z
1,
1*
#720
0*
#725
1$
0%
b11 A
b11 [
b11 F
b11 Z
0,
1*
#730
0*
#735
b10010000101010011000000000011 P
b100 F
b100 Z
1-
1*
#740
0*
#745
1H
1@
0$
b100 A
b100 [
b101 F
b101 Z
0-
1*
#750
0*
#755
b0 F
b0 Z
1/
0y
b10010000101010011010100100100 {
0(
b10010000101010011010100100100 &
b10010000101010011010100100100 O
b10010000101010011 V
b10010000101010011 o
b10010000101010011 X
b10010000101010011 q
1S
0H
0@
1!
b101 A
b101 [
1*
#760
0*
#765
0D
b10010000101010011 K
b10010000101010011 b
b11 L
b11 c
1M
b1 `
b100 s
0!
1"
b0 A
b0 [
0S
b0 F
b0 Z
0/
1*
#770
0*
#775
b10000100100001001101011000001001 |
b10000100100001001101000000000011 +
b10000100100001001101000000000011 =
b10000100100001001101011000001001 4
b1 8
01
b10010000101010011010100100100 3
1*
#780
0*
#785
1D
b0 L
b0 c
b0 K
b0 b
0M
b0 `
b100 s
b10000100100001001101 ?
b10000100100001001101 ]
b1101 B
b1101 ^
b1101 h
b1101 l
b1101 p
b11000001001 E
b11000001001 _
b10000100100001001101011000001001 R
b10000100100001001101011000001001 \
b1 F
b1 Z
b10000100100001001101011000001001 5
b10000100100001001101011000001001 >
1.
1*
#790
0*
#795
1I
0"
b1 A
b1 [
b10 F
b10 Z
0.
1*
#800
0*
#805
0I
1%
b10 A
b10 [
b10000100100001001101011000001001 #
b10000100100001001101011000001001 Q
1*
#810
0*
#815
b11 F
b11 Z
1,
1*
#820
0*
#825
1$
0%
b11 A
b11 [
b11 F
b11 Z
0,
1*
#830
0*
#835
b10000100100001001101000000000011 P
b100 F
b100 Z
1-
1*
#840
0*
#845
1H
1@
0$
b100 A
b100 [
b101 F
b101 Z
0-
1*
#850
0*
#855
b0 F
b0 Z
1/
b10000100100001001101011000001001 {
b10000100100001001101011000001001 &
b10000100100001001101011000001001 O
b10000100100001001101 V
b10000100100001001101 o
b10000100100001001101 X
b10000100100001001101 q
1S
0H
0@
1!
b101 A
b101 [
1*
#860
0*
#865
0D
b10000100100001001101 K
b10000100100001001101 b
b11 L
b11 c
1M
b1 `
b100 s
0!
1"
b0 A
b0 [
0S
b0 F
b0 Z
0/
1*
#870
0*
#875
b110101110010111101100001101 |
b110101110010111000000000011 +
b110101110010111000000000011 =
b110101110010111101100001101 4
b10 8
b10000100100001001101011000001001 3
1*
#880
0*
#885
1D
b0 L
b0 c
b0 K
b0 b
0M
b0 `
b100 s
b110101110010111 ?
b110101110010111 ]
b111 B
b111 ^
b111 h
b111 l
b111 p
b101100001101 E
b101100001101 _
b110101110010111101100001101 R
b110101110010111101100001101 \
b1 F
b1 Z
b110101110010111101100001101 5
b110101110010111101100001101 >
1.
1*
#890
0*
#895
1I
0"
b1 A
b1 [
b10 F
b10 Z
0.
1*
#900
0*
#905
0I
1%
b10 A
b10 [
b110101110010111101100001101 #
b110101110010111101100001101 Q
1*
#910
0*
#915
b11 F
b11 Z
1,
1*
#920
0*
#925
1$
0%
b11 A
b11 [
b11 F
b11 Z
0,
1*
#930
0*
#935
b110101110010111000000000011 P
b100 F
b100 Z
1-
1*
#940
0*
#945
1H
1@
0$
b100 A
b100 [
b101 F
b101 Z
0-
1*
#950
0*
#955
b0 F
b0 Z
1/
b110101110010111101100001101 {
b110101110010111101100001101 &
b110101110010111101100001101 O
b110101110010111 V
b110101110010111 o
b110101110010111 X
b110101110010111 q
1S
0H
0@
1!
b101 A
b101 [
1*
#960
0*
#965
0D
b110101110010111 K
b110101110010111 b
b11 L
b11 c
1M
b1 `
b100 s
0!
1"
b0 A
b0 [
0S
b0 F
b0 Z
0/
1*
#970
0*
#975
0x
b10110010110000101000010001100101 |
b10110010110000101000000000000011 +
b10110010110000101000000000000011 =
0)
b10110010110000101000010001100101 4
b11 8
b110101110010111101100001101 3
1*
#980
0*
#985
1D
b0 L
b0 c
b1 C
b1 f
b100 g
b1 G
b1 d
b0 e
b0 K
b0 b
0M
b0 `
b10 j
b100 s
b10110010110000101000 ?
b10110010110000101000 ]
b1000 B
b1000 ^
b1000 h
b1000 l
b1000 p
b10001100101 E
b10001100101 _
0N
b10110010110000101000010001100101 R
b10110010110000101000010001100101 \
b1 F
b1 Z
b10110010110000101000010001100101 5
b10110010110000101000010001100101 >
1.
1*
#990
0*
#995
1I
0"
b1 A
b1 [
b10 F
b10 Z
0.
1*
#1000
0*
#1005
0I
1%
b10 A
b10 [
b10110010110000101000010001100101 #
b10110010110000101000010001100101 Q
1*
#1010
0*
#1015
b11 F
b11 Z
1,
1*
#1020
0*
#1025
1$
0%
b11 A
b11 [
b11 F
b11 Z
0,
1*
#1030
0*
#1035
b10110010110000101000000000000011 P
b100 F
b100 Z
1-
1*
#1040
0*
#1045
1H
1@
0$
b100 A
b100 [
b101 F
b101 Z
0-
1*
#1050
0*
#1055
b0 F
b0 Z
1/
b10110010110000101000010001100101 {
b10110010110000101000010001100101 &
b10110010110000101000010001100101 O
b1 T
b1 m
b10110010110000101000 V
b10110010110000101000 o
b10110010110000101000 X
b10110010110000101000 q
b1 Y
b1 r
1S
0H
0@
1!
b101 A
b101 [
1*
#1060
0*
#1065
0D
b1 J
b1 a
b1 k
b10110010110000101000 K
b10110010110000101000 b
b11 L
b11 c
b100 g
b0 e
b10 C
b10 f
1M
b10 `
b100 s
0!
1"
b0 A
b0 [
0S
b0 F
b0 Z
0/
1*
#1070
0*
#1075
1x
b111100111110001100000001 |
b111100111110000000000011 +
b111100111110000000000011 =
1)
b111100111110001100000001 4
b100 8
b10110010110000101000010001100101 3
1*
#1080
0*
#1085
1D
b0 J
b0 a
b0 k
b0 L
b0 c
b0 K
b0 b
b100 g
b0 G
b0 d
b0 C
b0 f
0M
b0 `
b1 j
b100 s
b111100111110 ?
b111100111110 ]
b1110 B
b1110 ^
b1110 h
b1110 l
b1110 p
b1100000001 E
b1100000001 _
1N
b111100111110001100000001 R
b111100111110001100000001 \
b1 F
b1 Z
b111100111110001100000001 5
b111100111110001100000001 >
1.
1*
#1090
0*
#1095
1I
0"
b1 A
b1 [
b10 F
b10 Z
0.
1*
#1100
0*
#1105
0I
1%
b10 A
b10 [
b111100111110001100000001 #
b111100111110001100000001 Q
1*
#1110
0*
#1115
b11 F
b11 Z
1,
1*
#1120
0*
#1125
1$
0%
b11 A
b11 [
b11 F
b11 Z
0,
1*
#1130
0*
#1135
b111100111110000000000011 P
b100 F
b100 Z
1-
1*
#1140
0*
#1145
1H
1@
0$
b100 A
b100 [
b101 F
b101 Z
0-
1*
#1150
0*
#1155
b0 F
b0 Z
1/
b111100111110001100000001 {
b111100111110001100000001 &
b111100111110001100000001 O
b0 T
b0 m
b111100111110 V
b111100111110 o
b111100111110 X
b111100111110 q
b0 Y
b0 r
1S
0H
0@
1!
b101 A
b101 [
1*
#1160
0*
#1165
0D
b111100111110 K
b111100111110 b
b11 L
b11 c
1M
b1 `
b100 s
0!
1"
b0 A
b0 [
0S
b0 F
b0 Z
0/
1*
#1170
0*
#1175
b111011001000111111000101110110 |
b111011001000111111000000000011 +
b111011001000111111000000000011 =
b111011001000111111000101110110 4
b101 8
b111100111110001100000001 3
1*
#1180
0*
#1185
1D
b0 L
b0 c
b0 K
b0 b
0M
b0 `
b100 s
b111011001000111111 ?
b111011001000111111 ]
b1111 B
b1111 ^
b1111 h
b1111 l
b1111 p
b101110110 E
b101110110 _
b111011001000111111000101110110 R
b111011001000111111000101110110 \
b1 F
b1 Z
b111011001000111111000101110110 5
b111011001000111111000101110110 >
1.
1*
#1190
0*
#1195
1I
0"
b1 A
b1 [
b10 F
b10 Z
0.
1*
#1200
0*
#1205
0I
1%
b10 A
b10 [
b111011001000111111000101110110 #
b111011001000111111000101110110 Q
1*
#1210
0*
#1215
b11 F
b11 Z
1,
1*
#1220
0*
#1225
1$
0%
b11 A
b11 [
b11 F
b11 Z
0,
1*
#1230
0*
#1235
b111011001000111111000000000011 P
b100 F
b100 Z
1-
1*
#1240
0*
#1245
1H
1@
0$
b100 A
b100 [
b101 F
b101 Z
0-
1*
#1250
0*
#1255
b0 F
b0 Z
1/
b111011001000111111000101110110 {
b111011001000111111000101110110 &
b111011001000111111000101110110 O
b111011001000111111 V
b111011001000111111 o
b111011001000111111 X
b111011001000111111 q
1S
0H
0@
1!
b101 A
b101 [
1*
#1260
0*
#1265
0D
b111011001000111111 K
b111011001000111111 b
b11 L
b11 c
1M
b1 `
b100 s
0!
1"
b0 A
b0 [
0S
b0 F
b0 Z
0/
1*
#1270
0*
#1275
0x
b1110110110101000101011111101101 |
b1110110110101000101000000000011 +
b1110110110101000101000000000011 =
0)
b1110110110101000101011111101101 4
b110 8
b111011001000111111000101110110 3
1*
#1280
0*
#1285
1D
b0 L
b0 c
b10 C
b10 f
b100 g
b1 G
b1 d
b0 e
b0 K
b0 b
0M
b0 `
b10 j
b100 s
b1110110110101000101 ?
b1110110110101000101 ]
b101 B
b101 ^
b101 h
b101 l
b101 p
b11111101101 E
b11111101101 _
0N
b1110110110101000101011111101101 R
b1110110110101000101011111101101 \
b1 F
b1 Z
b1110110110101000101011111101101 5
b1110110110101000101011111101101 >
1.
1*
#1290
0*
#1295
1I
0"
b1 A
b1 [
b10 F
b10 Z
0.
1*
#1300
0*
#1305
0I
1%
b10 A
b10 [
b1110110110101000101011111101101 #
b1110110110101000101011111101101 Q
1*
#1310
0*
#1315
b11 F
b11 Z
1,
1*
#1320
0*
#1325
1$
0%
b11 A
b11 [
b11 F
b11 Z
0,
1*
#1330
0*
#1335
b1110110110101000101000000000011 P
b100 F
b100 Z
1-
1*
#1340
0*
#1345
1H
1@
0$
b100 A
b100 [
b101 F
b101 Z
0-
1*
#1350
0*
